\relax 
\citation{elkhodary2010fusion}
\citation{DBLP:conf/icse/ChenPYNZ14}
\citation{DBLP:conf/icse/GhezziPST13}
\citation{DBLP:conf/re/SalehiePOAN12}
\citation{DBLP:journals/tse/EsfahaniEM13}
\citation{DBLP:conf/re/QianPCMWZ14}
\citation{DBLP:conf/icse/ChenPYNZ14}
\citation{Chen09}
\citation{DBLP:conf/dagstuhl/Lemos}
\citation{Lane10}
\citation{garlan2004rainbow}
\citation{acher2009modeling}
\@writefile{toc}{\contentsline {section}{\numberline {I}Introduction}{1}}
\newlabel{sec: introduciton}{{I}{1}}
\citation{zhang2006feature}
\@writefile{toc}{\contentsline {section}{\numberline {II}Preliminaries}{2}}
\newlabel{sec:preliminary}{{II}{2}}
\@writefile{lof}{\contentsline {figure}{\numberline {1}{\ignorespaces An Example Context Feature Model\relax }}{2}}
\providecommand*\caption@xref[2]{\@setref\relax\@undefined{#1}}
\newlabel{fig:cfm}{{1}{2}}
\@writefile{toc}{\contentsline {subsection}{\numberline {\unhbox \voidb@x \hbox {II-A}}Feature Model}{2}}
\citation{Chen09}
\citation{hendrickson2007modeling}
\citation{cetina2009autonomic}
\citation{kapova2009automated}
\@writefile{lof}{\contentsline {figure}{\numberline {2}{\ignorespaces An Example of Relationship between Features and Goals\relax }}{3}}
\newlabel{fig:relation}{{2}{3}}
\@writefile{toc}{\contentsline {subsection}{\numberline {\unhbox \voidb@x \hbox {II-B}}Relationship between Features and Goals}{3}}
\@writefile{lof}{\contentsline {figure}{\numberline {3}{\ignorespaces Overview of $\nu $Rule-based Adaptation Framework\relax }}{3}}
\newlabel{fig:overview}{{3}{3}}
\@writefile{toc}{\contentsline {section}{\numberline {III}View-based Adaptation Framework}{3}}
\newlabel{sec:framework}{{III}{3}}
\@writefile{toc}{\contentsline {subsection}{\numberline {\unhbox \voidb@x \hbox {III-A}}View-based Adaptation Loop}{3}}
\citation{van2001goal}
\@writefile{toc}{\contentsline {subsection}{\numberline {\unhbox \voidb@x \hbox {III-B}}Knowledge Base}{4}}
\@writefile{toc}{\contentsline {subsection}{\numberline {\unhbox \voidb@x \hbox {III-C}}Integration of Goal-oriented and Rule-based Planning}{4}}
\@writefile{toc}{\contentsline {section}{\numberline {IV}Feature Division and Relationship Modeling}{4}}
\newlabel{sec:featureDivision}{{IV}{4}}
\@writefile{toc}{\contentsline {subsection}{\numberline {\unhbox \voidb@x \hbox {IV-A}}Feature Division}{4}}
\newlabel{subsec:division}{{\unhbox \voidb@x \hbox {IV-A}}{4}}
\citation{elkhodary2010fusion}
\citation{michalski2013machine}
\@writefile{lot}{\contentsline {table}{\numberline {I}{\ignorespaces Collected Records for Significance Tests\relax }}{5}}
\newlabel{tab:records}{{I}{5}}
\@writefile{toc}{\contentsline {subsection}{\numberline {\unhbox \voidb@x \hbox {IV-B}}Relationship Modeling}{5}}
\@writefile{lot}{\contentsline {table}{\numberline {II}{\ignorespaces Collected Records for Relationship Modeling\relax }}{5}}
\newlabel{tab:records2}{{II}{5}}
\@writefile{toc}{\contentsline {section}{\numberline {V}The integrated planning process}{6}}
\newlabel{sec:planning}{{V}{6}}
\@writefile{toc}{\contentsline {subsection}{\numberline {\unhbox \voidb@x \hbox {V-A}}Goal-oriented Planning}{6}}
\newlabel{goalOrientedPlanning}{{\unhbox \voidb@x \hbox {V-A}}{6}}
\@writefile{toc}{\contentsline {subsubsection}{\numberline {\unhbox \voidb@x \hbox {V-A}1}The Planning Method}{6}}
\newlabel{sec:example}{{\unhbox \voidb@x \hbox {V-A}2}{6}}
\@writefile{toc}{\contentsline {subsubsection}{\numberline {\unhbox \voidb@x \hbox {V-A}2}Example}{6}}
\@writefile{toc}{\contentsline {subsection}{\numberline {\unhbox \voidb@x \hbox {V-B}}Construction of Well-behaved Rule Set}{6}}
\newlabel{ruleSelection}{{\unhbox \voidb@x \hbox {V-B}}{6}}
\@writefile{toc}{\contentsline {subsubsection}{\numberline {\unhbox \voidb@x \hbox {V-B}1}Rules Set Construction Algorithm}{6}}
\@writefile{toc}{\contentsline {subsubsection}{\numberline {\unhbox \voidb@x \hbox {V-B}2}Example}{6}}
\citation{Yang2014}
\citation{Chen09}
\citation{DBLP:conf/dagstuhl/Lemos}
\citation{Dobson2006}
\citation{Brun2009}
\citation{floch2006using}
\citation{kephart2007achieving}
\citation{Feather1998}
\citation{Liaskos2006}
\citation{Yu2008}
\citation{Garlan2004}
\citation{floch2006using}
\citation{kephart2007achieving}
\citation{elkhodary2010fusion}
\citation{Ghez_sesas10}
\citation{DBLP:conf/icse/GhezziPST13}
\citation{DBLP:conf/icse/ChenPYNZ14}
\citation{DBLP:conf/re/QianPCMWZ14}
\citation{garlan2004rainbow}
\citation{Lanese2010}
\citation{acher2009modeling}
\citation{acher2011modeling}
\citation{morin2009models}
\citation{floch2006using}
\citation{cetina2009autonomic}
\citation{yuSPLC14}
\@writefile{toc}{\contentsline {subsection}{\numberline {\unhbox \voidb@x \hbox {V-C}}Rule-based Planning Process}{7}}
\newlabel{ruleBasedPlanning}{{\unhbox \voidb@x \hbox {V-C}}{7}}
\@writefile{toc}{\contentsline {section}{\numberline {VI}Evaluation}{7}}
\newlabel{sec:evaluation}{{VI}{7}}
\@writefile{toc}{\contentsline {section}{\numberline {VII}Related Work}{7}}
\newlabel{sec: relatedWork}{{VII}{7}}
\citation{Lenses}
\citation{CzarneckiFHLST09}
\citation{HSST11}
\citation{Yu12}
\citation{Bancilhon:81}
\citation{Dayal:82}
\citation{GoPZ88}
\bibstyle{IEEEtran}
\bibdata{references,jin}
\bibcite{elkhodary2010fusion}{1}
\bibcite{DBLP:conf/icse/ChenPYNZ14}{2}
\bibcite{DBLP:conf/icse/GhezziPST13}{3}
\bibcite{DBLP:conf/re/SalehiePOAN12}{4}
\bibcite{DBLP:journals/tse/EsfahaniEM13}{5}
\bibcite{DBLP:conf/re/QianPCMWZ14}{6}
\bibcite{Chen09}{7}
\bibcite{DBLP:conf/dagstuhl/Lemos}{8}
\bibcite{Lane10}{9}
\bibcite{garlan2004rainbow}{10}
\bibcite{acher2009modeling}{11}
\bibcite{zhang2006feature}{12}
\bibcite{hendrickson2007modeling}{13}
\bibcite{cetina2009autonomic}{14}
\bibcite{kapova2009automated}{15}
\bibcite{van2001goal}{16}
\bibcite{michalski2013machine}{17}
\bibcite{floch2006using}{18}
\bibcite{kephart2007achieving}{19}
\bibcite{Ghez_sesas10}{20}
\bibcite{acher2011modeling}{21}
\bibcite{morin2009models}{22}
\bibcite{yuSPLC14}{23}
\bibcite{Lenses}{24}
\bibcite{CzarneckiFHLST09}{25}
\bibcite{HSST11}{26}
\@writefile{toc}{\contentsline {section}{\numberline {VIII}Conclusion}{8}}
\newlabel{sec:conclusion}{{VIII}{8}}
\@writefile{toc}{\contentsline {section}{References}{8}}
\bibcite{Yu12}{27}
\bibcite{Bancilhon:81}{28}
\bibcite{Dayal:82}{29}
\bibcite{GoPZ88}{30}
