%!PS-Adobe-3.0 EPSF-3.0 
%%BoundingBox: 0 0 595 842
%%Pages: 0
%%Creator: LibreOffice 4.0
%%Title: none
%%CreationDate: none
%%LanguageLevel: 2
%%EndComments
%%BeginProlog
%%BeginResource: procset SDRes-Prolog 1.0 0
/b4_inc_state save def
/dict_count countdictstack def
/op_count count 1 sub def
userdict begin
0 setgray 0 setlinecap 1 setlinewidth 0 setlinejoin 10 setmiterlimit[] 0 setdash newpath
/languagelevel where {pop languagelevel 1 ne {false setstrokeadjust false setoverprint} if} if
/bdef {bind def} bind def
/c {setrgbcolor} bdef
/l {neg lineto} bdef
/rl {neg rlineto} bdef
/lc {setlinecap} bdef
/lj {setlinejoin} bdef
/lw {setlinewidth} bdef
/ml {setmiterlimit} bdef
/ld {setdash} bdef
/m {neg moveto} bdef
/ct {6 2 roll neg 6 2 roll neg 6 2 roll neg curveto} bdef
/r {rotate} bdef
/t {neg translate} bdef
/s {scale} bdef
/sw {show} bdef
/gs {gsave} bdef
/gr {grestore} bdef
/f {findfont dup length dict begin
{1 index /FID ne {def} {pop pop} ifelse} forall /Encoding ISOLatin1Encoding def
currentdict end /NFont exch definefont pop /NFont findfont} bdef
/p {closepath} bdef
/sf {scalefont setfont} bdef
/ef {eofill}bdef
/pc {closepath stroke}bdef
/ps {stroke}bdef
/pum {matrix currentmatrix}bdef
/pom {setmatrix}bdef
/bs {/aString exch def /nXOfs exch def /nWidth exch def currentpoint nXOfs 0 rmoveto pum nWidth aString stringwidth pop div 1 scale aString show pom moveto} bdef
%%EndResource
%%EndProlog
%%BeginSetup
%%EndSetup
%%Page: 1 1
%%BeginPageSetup
%%EndPageSetup
pum
0.02833 0.02835 s 
0 -29700 t
/tm matrix currentmatrix def
gs
tm setmatrix
-1105 -1072 t 
1 1 s 
1105 1072 m 22104 1072 l 22104 30771 l 1105 30771 l 1105 1072 l eoclip newpath
gs
0 0 m 20999 0 l 20999 29699 l 0 29699 l 0 0 l eoclip newpath
152 lw 1 lj 0.449 0.625 0.812 c 6521 4883 m  4753 4883 l  4753 3113 l  8287 3113 l 
8287 4883 l  6521 4883 l  pc
pum
5652 3886 t
0.003 0.003 0.003 c 329 -101 m  329 -85 326 -71 320 -58 ct 314 -45 305 -34 293 -25 ct 
280 -15 265 -8 246 -3 ct 227 2 204 5 179 5 ct 133 5 98 -3 72 -19 ct 47 -35 31 -58 24 -88 ct 
72 -97 l  74 -88 78 -79 83 -71 ct 88 -64 95 -57 103 -51 ct 112 -46 123 -41 135 -38 ct 
148 -35 163 -34 180 -34 ct 195 -34 209 -35 221 -37 ct 233 -40 244 -44 252 -49 ct 
261 -54 268 -61 273 -69 ct 278 -77 280 -87 280 -98 ct 280 -110 278 -120 272 -127 ct 
267 -135 259 -141 249 -146 ct 239 -150 228 -154 214 -158 ct 200 -161 185 -164 169 -168 ct 
159 -171 148 -173 138 -176 ct 128 -178 118 -182 109 -185 ct 99 -189 90 -193 82 -198 ct 
74 -203 67 -209 61 -216 ct 55 -223 50 -231 46 -241 ct 43 -250 41 -260 41 -273 ct 
41 -290 45 -305 52 -317 ct 59 -329 68 -339 81 -347 ct 93 -355 108 -361 125 -365 ct 
142 -368 160 -370 180 -370 ct 202 -370 222 -368 238 -365 ct 254 -361 267 -356 278 -349 ct 
289 -342 298 -333 305 -323 ct 311 -312 317 -300 321 -286 ct 272 -278 l  270 -286 266 -294 262 -301 ct 
257 -308 251 -314 244 -319 ct 236 -323 227 -327 216 -329 ct 206 -332 193 -333 179 -333 ct 
162 -333 148 -331 137 -328 ct 125 -325 116 -321 109 -316 ct 102 -311 97 -305 94 -298 ct 
91 -291 89 -283 89 -275 ct 89 -264 92 -255 97 -248 ct 103 -241 110 -236 120 -231 ct 
129 -226 140 -222 152 -219 ct 164 -216 177 -213 191 -210 ct 202 -207 213 -205 225 -202 ct 
236 -199 246 -196 256 -192 ct 267 -189 276 -184 285 -179 ct 294 -174 302 -168 308 -161 ct 
315 -154 320 -145 324 -135 ct 327 -126 329 -114 329 -101 ct p ef
638 -140 m  638 -91 627 -55 605 -31 ct 584 -7 552 5 511 5 ct 492 5 474 2 459 -4 ct 
444 -10 431 -19 420 -31 ct 409 -43 401 -58 396 -76 ct 390 -94 387 -116 387 -140 ct 
387 -237 429 -285 513 -285 ct 535 -285 553 -282 569 -276 ct 585 -270 598 -261 608 -249 ct 
618 -237 625 -222 630 -204 ct 635 -185 638 -164 638 -140 ct p
589 -140 m  589 -162 587 -180 584 -194 ct 580 -208 575 -219 569 -228 ct 562 -236 554 -242 545 -246 ct 
536 -249 525 -251 514 -251 ct 502 -251 491 -249 481 -245 ct 472 -242 464 -236 457 -227 ct 
450 -219 445 -207 441 -193 ct 438 -179 436 -161 436 -140 ct 436 -119 438 -101 442 -86 ct 
446 -72 451 -61 458 -52 ct 464 -44 472 -38 481 -35 ct 490 -31 500 -29 511 -29 ct 
523 -29 533 -31 543 -34 ct 553 -38 561 -44 568 -52 ct 574 -61 580 -72 583 -86 ct 
587 -101 589 -119 589 -140 ct p ef
750 -280 m  750 -103 l  750 -89 751 -78 753 -68 ct 755 -59 758 -52 763 -46 ct 
767 -41 773 -37 781 -34 ct 788 -32 797 -31 808 -31 ct 819 -31 829 -33 838 -37 ct 
847 -41 854 -46 861 -54 ct 867 -61 872 -70 875 -81 ct 879 -92 880 -104 880 -118 ct 
880 -280 l  927 -280 l  927 -60 l  927 -54 927 -48 927 -41 ct 927 -35 927 -29 928 -23 ct 
928 -17 928 -12 928 -8 ct 928 -4 928 -1 929 0 ct 885 0 l  884 -1 884 -3 884 -7 ct 
884 -11 884 -15 883 -20 ct 883 -25 883 -30 883 -35 ct 883 -40 883 -45 883 -48 ct 
882 -48 l  877 -40 872 -33 867 -26 ct 862 -19 855 -14 848 -9 ct 841 -5 833 -1 824 1 ct 
815 4 804 5 792 5 ct 777 5 763 3 752 -1 ct 741 -4 732 -10 724 -18 ct 717 -26 712 -36 708 -49 ct 
705 -61 703 -76 703 -94 ct 703 -280 l  750 -280 l  p ef
1011 0 m  1011 -215 l  1011 -221 1011 -227 1011 -233 ct 1011 -239 1010 -245 1010 -250 ct 
1010 -256 1010 -261 1010 -266 ct 1010 -271 1009 -276 1009 -280 ct 1053 -280 l 
1053 -276 1054 -271 1054 -266 ct 1054 -261 1054 -256 1055 -251 ct 1055 -245 1055 -240 1055 -235 ct 
1055 -230 1055 -226 1055 -223 ct 1056 -223 l  1060 -233 1063 -243 1067 -250 ct 
1070 -258 1075 -265 1080 -270 ct 1085 -275 1091 -279 1098 -281 ct 1105 -284 1113 -285 1123 -285 ct 
1127 -285 1130 -285 1134 -284 ct 1137 -284 1140 -283 1142 -282 ct 1142 -240 l 
1139 -241 1135 -241 1131 -242 ct 1127 -242 1122 -242 1117 -242 ct 1106 -242 1097 -240 1090 -235 ct 
1082 -230 1076 -224 1071 -215 ct 1066 -207 1063 -196 1061 -185 ct 1058 -173 1057 -160 1057 -146 ct 
1057 0 l  1011 0 l  p ef
1227 -141 m  1227 -125 1228 -111 1231 -97 ct 1233 -84 1237 -72 1242 -62 ct 1248 -53 1255 -45 1264 -40 ct 
1273 -34 1285 -32 1298 -32 ct 1314 -32 1328 -36 1339 -45 ct 1350 -53 1357 -67 1360 -85 ct 
1407 -85 l  1405 -73 1402 -62 1397 -51 ct 1392 -40 1385 -31 1376 -22 ct 1367 -14 1356 -7 1343 -2 ct 
1331 2 1316 5 1299 5 ct 1277 5 1259 1 1243 -6 ct 1228 -14 1215 -24 1206 -37 ct 
1196 -50 1189 -65 1185 -83 ct 1181 -100 1179 -120 1179 -140 ct 1179 -159 1180 -176 1183 -190 ct 
1186 -204 1191 -217 1196 -228 ct 1202 -239 1208 -248 1216 -255 ct 1224 -262 1232 -268 1241 -272 ct 
1250 -277 1259 -280 1269 -282 ct 1279 -284 1289 -285 1299 -285 ct 1314 -285 1328 -283 1341 -279 ct 
1353 -274 1363 -268 1372 -261 ct 1381 -253 1388 -245 1394 -234 ct 1399 -224 1403 -213 1405 -202 ct 
1358 -198 l  1355 -213 1349 -226 1339 -235 ct 1329 -244 1315 -249 1297 -249 ct 
1284 -249 1273 -246 1264 -242 ct 1255 -238 1248 -231 1242 -222 ct 1237 -213 1233 -202 1231 -189 ct 
1228 -175 1227 -159 1227 -141 ct p ef
1502 -130 m  1502 -116 1504 -102 1507 -90 ct 1510 -77 1515 -67 1521 -58 ct 1527 -49 1535 -42 1545 -37 ct 
1555 -32 1567 -30 1581 -30 ct 1601 -30 1617 -34 1629 -42 ct 1641 -50 1650 -60 1654 -73 ct 
1695 -61 l  1692 -53 1688 -46 1682 -38 ct 1677 -30 1670 -23 1661 -17 ct 1653 -10 1642 -5 1628 -1 ct 
1615 3 1599 5 1581 5 ct 1539 5 1508 -7 1486 -32 ct 1464 -57 1454 -93 1454 -142 ct 
1454 -168 1457 -190 1463 -208 ct 1470 -227 1479 -241 1490 -253 ct 1502 -264 1515 -272 1530 -277 ct 
1545 -282 1562 -285 1579 -285 ct 1602 -285 1622 -281 1638 -274 ct 1653 -266 1666 -256 1676 -242 ct 
1685 -229 1692 -213 1696 -195 ct 1700 -177 1702 -158 1702 -137 ct 1702 -130 l 
1502 -130 l  p
1654 -166 m  1651 -195 1644 -217 1632 -230 ct 1619 -244 1601 -251 1578 -251 ct 
1570 -251 1562 -249 1554 -247 ct 1545 -244 1537 -240 1530 -234 ct 1523 -227 1516 -219 1511 -208 ct 
1506 -197 1504 -183 1503 -166 ct 1654 -166 l  p ef
pom
pum
5957 4481 t
357 -186 m  357 -156 353 -129 344 -106 ct 335 -82 322 -63 306 -47 ct 290 -32 272 -20 250 -12 ct 
228 -4 205 0 180 0 ct 43 0 l  43 -365 l  164 -365 l  192 -365 218 -361 242 -354 ct 
266 -347 286 -336 303 -322 ct 320 -307 333 -289 343 -266 ct 353 -244 357 -217 357 -186 ct 
p
308 -186 m  308 -211 304 -232 297 -249 ct 290 -267 280 -281 267 -292 ct 255 -304 239 -312 222 -317 ct 
204 -322 184 -325 163 -325 ct 93 -325 l  93 -40 l  174 -40 l  193 -40 211 -43 227 -49 ct 
244 -55 258 -64 270 -77 ct 282 -89 291 -104 298 -122 ct 304 -141 308 -162 308 -186 ct 
p ef
584 -324 m  584 0 l  535 0 l  535 -324 l  410 -324 l  410 -364 l  710 -364 l 
710 -324 l  584 -324 l  p ef
1086 -186 m  1086 -156 1082 -129 1073 -106 ct 1064 -82 1051 -63 1035 -47 ct 
1019 -32 1001 -20 979 -12 ct 957 -4 934 0 909 0 ct 772 0 l  772 -365 l  893 -365 l 
921 -365 947 -361 971 -354 ct 995 -347 1015 -336 1032 -322 ct 1049 -307 1062 -289 1072 -266 ct 
1082 -244 1086 -217 1086 -186 ct p
1037 -186 m  1037 -211 1033 -232 1026 -249 ct 1019 -267 1009 -281 996 -292 ct 
984 -304 968 -312 951 -317 ct 933 -322 913 -325 892 -325 ct 822 -325 l  822 -40 l 
903 -40 l  922 -40 940 -43 956 -49 ct 973 -55 987 -64 999 -77 ct 1011 -89 1020 -104 1027 -122 ct 
1033 -141 1037 -162 1037 -186 ct p ef
pom
0.449 0.625 0.812 c 11025 4884 m  9340 4884 l  9340 3114 l  12709 3114 l 
12709 4884 l  11025 4884 l  pc
pum
10143 3887 t
0.003 0.003 0.003 c 326 -103 m  326 -84 322 -69 315 -55 ct 307 -42 298 -32 285 -24 ct 
273 -15 259 -9 243 -6 ct 227 -2 209 0 192 0 ct 43 0 l  43 -365 l  176 -365 l 
196 -365 214 -363 230 -360 ct 246 -356 259 -351 270 -344 ct 281 -336 290 -327 296 -316 ct 
301 -305 304 -292 304 -276 ct 304 -266 303 -256 300 -247 ct 297 -238 293 -230 287 -223 ct 
281 -216 274 -209 265 -204 ct 257 -199 247 -195 235 -192 ct 250 -190 263 -187 274 -182 ct 
285 -177 295 -171 302 -163 ct 310 -155 316 -146 320 -136 ct 324 -126 326 -115 326 -103 ct 
p
255 -270 m  255 -290 248 -304 234 -312 ct 221 -321 202 -325 176 -325 ct 93 -325 l 
93 -210 l  176 -210 l  190 -210 203 -211 213 -214 ct 223 -217 231 -221 237 -226 ct 
243 -231 248 -238 251 -245 ct 253 -252 255 -261 255 -270 ct p
276 -107 m  276 -118 274 -128 269 -136 ct 265 -144 259 -151 251 -156 ct 243 -161 234 -165 222 -167 ct 
211 -170 199 -171 185 -171 ct 93 -171 l  93 -40 l  189 -40 l  202 -40 213 -41 224 -43 ct 
234 -45 243 -48 251 -54 ct 259 -59 265 -66 269 -74 ct 273 -83 276 -94 276 -107 ct 
p ef
400 -340 m  400 -384 l  447 -384 l  447 -340 l  400 -340 l  p
400 0 m  400 -280 l  447 -280 l  447 0 l  400 0 l  p ef
579 -325 m  579 -189 l  782 -189 l  782 -148 l  579 -148 l  579 -1 l  529 -1 l 
529 -365 l  789 -365 l  789 -325 l  579 -325 l  p ef
855 0 m  855 -384 l  901 -384 l  901 0 l  855 0 l  p ef
1022 -280 m  1022 -103 l  1022 -89 1023 -78 1025 -68 ct 1027 -59 1030 -52 1035 -46 ct 
1039 -41 1045 -37 1053 -34 ct 1060 -32 1069 -31 1080 -31 ct 1091 -31 1101 -33 1110 -37 ct 
1119 -41 1126 -46 1133 -54 ct 1139 -61 1144 -70 1147 -81 ct 1151 -92 1152 -104 1152 -118 ct 
1152 -280 l  1199 -280 l  1199 -60 l  1199 -54 1199 -48 1199 -41 ct 1199 -35 1199 -29 1200 -23 ct 
1200 -17 1200 -12 1200 -8 ct 1200 -4 1200 -1 1201 0 ct 1157 0 l  1156 -1 1156 -3 1156 -7 ct 
1156 -11 1156 -15 1155 -20 ct 1155 -25 1155 -30 1155 -35 ct 1155 -40 1155 -45 1155 -48 ct 
1154 -48 l  1149 -40 1144 -33 1139 -26 ct 1134 -19 1127 -14 1120 -9 ct 1113 -5 1105 -1 1096 1 ct 
1087 4 1076 5 1064 5 ct 1049 5 1035 3 1024 -1 ct 1013 -4 1004 -10 996 -18 ct 989 -26 984 -36 980 -49 ct 
977 -61 975 -76 975 -94 ct 975 -280 l  1022 -280 l  p ef
1533 0 m  1423 -159 l  1312 0 l  1257 0 l  1396 -189 l  1268 -364 l  1322 -364 l 
1424 -221 l  1522 -364 l  1577 -364 l  1452 -191 l  1587 0 l  1533 0 l 
p ef
pom
pum
9977 4482 t
326 -255 m  326 -239 323 -224 318 -210 ct 312 -197 305 -185 294 -175 ct 284 -165 271 -157 255 -151 ct 
239 -145 221 -142 200 -142 ct 93 -142 l  93 0 l  43 0 l  43 -365 l  197 -365 l 
219 -365 237 -362 253 -357 ct 269 -351 283 -344 293 -334 ct 304 -325 312 -313 318 -300 ct 
323 -286 326 -271 326 -255 ct p
276 -254 m  276 -277 269 -295 255 -307 ct 241 -319 219 -325 191 -325 ct 93 -325 l 
93 -181 l  193 -181 l  222 -181 242 -187 256 -200 ct 269 -213 276 -231 276 -254 ct 
p ef
402 0 m  402 -215 l  402 -221 402 -227 402 -233 ct 402 -239 401 -245 401 -250 ct 
401 -256 401 -261 401 -266 ct 401 -271 400 -276 400 -280 ct 444 -280 l  444 -276 445 -271 445 -266 ct 
445 -261 445 -256 446 -251 ct 446 -245 446 -240 446 -235 ct 446 -230 446 -226 446 -223 ct 
447 -223 l  451 -233 454 -243 458 -250 ct 461 -258 466 -265 471 -270 ct 476 -275 482 -279 489 -281 ct 
496 -284 504 -285 514 -285 ct 518 -285 521 -285 525 -284 ct 528 -284 531 -283 533 -282 ct 
533 -240 l  530 -241 526 -241 522 -242 ct 518 -242 513 -242 508 -242 ct 497 -242 488 -240 481 -235 ct 
473 -230 467 -224 462 -215 ct 457 -207 454 -196 452 -185 ct 449 -173 448 -160 448 -146 ct 
448 0 l  402 0 l  p ef
820 -140 m  820 -91 809 -55 787 -31 ct 766 -7 734 5 693 5 ct 674 5 656 2 641 -4 ct 
626 -10 613 -19 602 -31 ct 591 -43 583 -58 578 -76 ct 572 -94 569 -116 569 -140 ct 
569 -237 611 -285 695 -285 ct 717 -285 735 -282 751 -276 ct 767 -270 780 -261 790 -249 ct 
800 -237 807 -222 812 -204 ct 817 -185 820 -164 820 -140 ct p
771 -140 m  771 -162 769 -180 766 -194 ct 762 -208 757 -219 751 -228 ct 744 -236 736 -242 727 -246 ct 
718 -249 707 -251 696 -251 ct 684 -251 673 -249 663 -245 ct 654 -242 646 -236 639 -227 ct 
632 -219 627 -207 623 -193 ct 620 -179 618 -161 618 -140 ct 618 -119 620 -101 624 -86 ct 
628 -72 633 -61 640 -52 ct 646 -44 654 -38 663 -35 ct 672 -31 682 -29 693 -29 ct 
705 -29 715 -31 725 -34 ct 735 -38 743 -44 750 -52 ct 756 -61 762 -72 765 -86 ct 
769 -101 771 -119 771 -140 ct p ef
993 110 m  977 110 963 108 950 105 ct 938 102 927 97 918 91 ct 909 85 902 78 897 69 ct 
891 61 887 51 885 41 ct 932 34 l  935 47 942 57 952 64 ct 963 71 977 75 994 75 ct 
1005 75 1014 73 1023 70 ct 1031 67 1039 63 1045 56 ct 1051 50 1056 41 1059 31 ct 
1062 20 1064 8 1064 -7 ct 1064 -52 l  1063 -52 l  1060 -45 1055 -38 1050 -32 ct 
1045 -25 1039 -20 1032 -15 ct 1024 -10 1016 -6 1006 -3 ct 997 0 986 2 973 2 ct 
955 2 940 -1 927 -7 ct 915 -13 904 -22 896 -34 ct 888 -46 883 -60 879 -78 ct 875 -96 873 -116 873 -139 ct 
873 -162 875 -182 879 -200 ct 883 -218 889 -233 897 -245 ct 905 -258 916 -267 930 -274 ct 
943 -281 959 -284 978 -284 ct 998 -284 1015 -279 1030 -270 ct 1045 -261 1056 -249 1064 -232 ct 
1064 -232 l  1064 -236 1064 -241 1065 -246 ct 1065 -252 1065 -257 1065 -261 ct 
1066 -266 1066 -270 1066 -274 ct 1067 -277 1067 -279 1067 -280 ct 1112 -280 l 
1111 -278 1111 -275 1111 -272 ct 1111 -268 1111 -264 1111 -258 ct 1110 -253 1110 -248 1110 -241 ct 
1110 -235 1110 -228 1110 -222 ct 1110 -8 l  1110 31 1100 61 1081 80 ct 1062 100 1033 110 993 110 ct 
p
1064 -140 m  1064 -159 1062 -176 1057 -190 ct 1053 -204 1048 -215 1041 -224 ct 
1034 -233 1026 -239 1017 -243 ct 1008 -247 999 -249 990 -249 ct 978 -249 968 -247 959 -243 ct 
951 -239 943 -233 938 -224 ct 932 -215 928 -203 925 -190 ct 923 -176 921 -159 921 -140 ct 
921 -120 923 -103 925 -89 ct 928 -75 932 -64 938 -56 ct 943 -47 950 -41 959 -38 ct 
967 -34 977 -32 989 -32 ct 998 -32 1007 -34 1016 -38 ct 1025 -42 1033 -49 1040 -57 ct 
1047 -66 1053 -77 1057 -91 ct 1062 -104 1064 -121 1064 -140 ct p ef
1193 0 m  1193 -215 l  1193 -221 1193 -227 1193 -233 ct 1193 -239 1192 -245 1192 -250 ct 
1192 -256 1192 -261 1192 -266 ct 1192 -271 1191 -276 1191 -280 ct 1235 -280 l 
1235 -276 1236 -271 1236 -266 ct 1236 -261 1236 -256 1237 -251 ct 1237 -245 1237 -240 1237 -235 ct 
1237 -230 1237 -226 1237 -223 ct 1238 -223 l  1242 -233 1245 -243 1249 -250 ct 
1252 -258 1257 -265 1262 -270 ct 1267 -275 1273 -279 1280 -281 ct 1287 -284 1295 -285 1305 -285 ct 
1309 -285 1312 -285 1316 -284 ct 1319 -284 1322 -283 1324 -282 ct 1324 -240 l 
1321 -241 1317 -241 1313 -242 ct 1309 -242 1304 -242 1299 -242 ct 1288 -242 1279 -240 1272 -235 ct 
1264 -230 1258 -224 1253 -215 ct 1248 -207 1245 -196 1243 -185 ct 1240 -173 1239 -160 1239 -146 ct 
1239 0 l  1193 0 l  p ef
1445 5 m  1417 5 1396 -2 1382 -17 ct 1368 -32 1361 -53 1361 -79 ct 1361 -97 1364 -112 1371 -124 ct 
1378 -136 1387 -145 1398 -152 ct 1410 -159 1423 -164 1437 -166 ct 1452 -169 1466 -170 1481 -170 ct 
1544 -170 l  1544 -185 l  1544 -197 1543 -207 1541 -215 ct 1538 -223 1535 -230 1530 -235 ct 
1525 -240 1518 -244 1511 -246 ct 1503 -248 1494 -250 1484 -250 ct 1475 -250 1467 -249 1460 -248 ct 
1453 -246 1446 -244 1441 -241 ct 1436 -237 1431 -233 1428 -227 ct 1425 -221 1423 -214 1422 -205 ct 
1373 -210 l  1375 -221 1378 -231 1383 -240 ct 1388 -249 1394 -257 1403 -264 ct 
1412 -271 1423 -276 1437 -279 ct 1450 -283 1466 -285 1485 -285 ct 1520 -285 1547 -277 1565 -261 ct 
1582 -245 1591 -221 1591 -191 ct 1591 -71 l  1591 -57 1593 -46 1597 -39 ct 1600 -32 1607 -29 1618 -29 ct 
1620 -29 1623 -29 1625 -29 ct 1628 -30 1630 -30 1633 -31 ct 1633 -2 l  1627 0 1621 1 1615 1 ct 
1610 2 1603 2 1597 2 ct 1588 2 1580 1 1574 -1 ct 1568 -4 1563 -7 1559 -12 ct 1555 -17 1552 -22 1550 -29 ct 
1548 -36 1546 -44 1546 -54 ct 1544 -54 l  1539 -45 1534 -37 1528 -29 ct 1522 -22 1515 -16 1507 -11 ct 
1499 -6 1490 -2 1480 1 ct 1470 4 1458 5 1445 5 ct p
1456 -30 m  1471 -30 1484 -33 1495 -38 ct 1506 -43 1515 -50 1522 -59 ct 1530 -67 1535 -76 1539 -86 ct 
1542 -96 1544 -106 1544 -115 ct 1544 -137 l  1493 -137 l  1482 -137 1471 -137 1461 -135 ct 
1451 -134 1442 -131 1434 -127 ct 1426 -122 1420 -116 1415 -108 ct 1411 -101 1408 -90 1408 -78 ct 
1408 -62 1412 -51 1421 -42 ct 1429 -34 1441 -30 1456 -30 ct p ef
1841 0 m  1841 -177 l  1841 -191 1840 -202 1838 -212 ct 1836 -221 1834 -228 1829 -234 ct 
1825 -239 1820 -243 1814 -246 ct 1807 -248 1799 -249 1790 -249 ct 1780 -249 1771 -247 1763 -243 ct 
1755 -239 1748 -234 1743 -226 ct 1737 -219 1733 -210 1730 -199 ct 1727 -189 1725 -176 1725 -162 ct 
1725 0 l  1679 0 l  1679 -220 l  1679 -226 1679 -232 1679 -239 ct 1679 -245 1678 -251 1678 -257 ct 
1678 -263 1678 -268 1678 -272 ct 1678 -276 1677 -279 1677 -280 ct 1721 -280 l 
1721 -279 1722 -277 1722 -273 ct 1722 -269 1722 -265 1722 -260 ct 1723 -255 1723 -250 1723 -245 ct 
1723 -240 1723 -235 1723 -232 ct 1724 -232 l  1728 -240 1733 -247 1737 -254 ct 
1742 -261 1748 -266 1754 -271 ct 1761 -275 1768 -279 1777 -281 ct 1785 -284 1795 -285 1806 -285 ct 
1827 -285 1844 -281 1856 -272 ct 1868 -264 1877 -250 1882 -232 ct 1883 -232 l 
1887 -240 1891 -247 1897 -254 ct 1902 -261 1908 -266 1915 -271 ct 1922 -275 1929 -279 1938 -281 ct 
1947 -284 1957 -285 1968 -285 ct 1982 -285 1994 -283 2004 -279 ct 2014 -276 2023 -270 2029 -262 ct 
2036 -254 2041 -244 2044 -231 ct 2047 -219 2049 -204 2049 -186 ct 2049 0 l  2003 0 l 
2003 -177 l  2003 -191 2002 -202 2000 -212 ct 1998 -221 1995 -228 1991 -234 ct 
1987 -239 1982 -243 1975 -246 ct 1969 -248 1961 -249 1951 -249 ct 1941 -249 1933 -247 1925 -243 ct 
1917 -240 1910 -234 1904 -227 ct 1899 -220 1894 -211 1891 -200 ct 1888 -189 1887 -176 1887 -162 ct 
1887 0 l  1841 0 l  p ef
pom
0.449 0.625 0.812 c 15629 4884 m  13871 4884 l  13871 3114 l  17386 3114 l 
17386 4884 l  15629 4884 l  pc
pum
14869 3887 t
0.003 0.003 0.003 c 186 -324 m  186 0 l  137 0 l  137 -324 l  12 -324 l  12 -364 l 
312 -364 l  312 -324 l  186 -324 l  p ef
379 5 m  351 5 330 -2 316 -17 ct 302 -32 295 -53 295 -79 ct 295 -97 298 -112 305 -124 ct 
312 -136 321 -145 332 -152 ct 344 -159 357 -164 371 -166 ct 386 -169 400 -170 415 -170 ct 
478 -170 l  478 -185 l  478 -197 477 -207 475 -215 ct 472 -223 469 -230 464 -235 ct 
459 -240 452 -244 445 -246 ct 437 -248 428 -250 418 -250 ct 409 -250 401 -249 394 -248 ct 
387 -246 380 -244 375 -241 ct 370 -237 365 -233 362 -227 ct 359 -221 357 -214 356 -205 ct 
307 -210 l  309 -221 312 -231 317 -240 ct 322 -249 328 -257 337 -264 ct 346 -271 357 -276 371 -279 ct 
384 -283 400 -285 419 -285 ct 454 -285 481 -277 499 -261 ct 516 -245 525 -221 525 -191 ct 
525 -71 l  525 -57 527 -46 531 -39 ct 534 -32 541 -29 552 -29 ct 554 -29 557 -29 559 -29 ct 
562 -30 564 -30 567 -31 ct 567 -2 l  561 0 555 1 549 1 ct 544 2 537 2 531 2 ct 
522 2 514 1 508 -1 ct 502 -4 497 -7 493 -12 ct 489 -17 486 -22 484 -29 ct 482 -36 480 -44 480 -54 ct 
478 -54 l  473 -45 468 -37 462 -29 ct 456 -22 449 -16 441 -11 ct 433 -6 424 -2 414 1 ct 
404 4 392 5 379 5 ct p
390 -30 m  405 -30 418 -33 429 -38 ct 440 -43 449 -50 456 -59 ct 464 -67 469 -76 473 -86 ct 
476 -96 478 -106 478 -115 ct 478 -137 l  427 -137 l  416 -137 405 -137 395 -135 ct 
385 -134 376 -131 368 -127 ct 360 -122 354 -116 349 -108 ct 345 -101 342 -90 342 -78 ct 
342 -62 346 -51 355 -42 ct 363 -34 375 -30 390 -30 ct p ef
613 0 m  613 -215 l  613 -221 613 -227 613 -233 ct 613 -239 612 -245 612 -250 ct 
612 -256 612 -261 612 -266 ct 612 -271 611 -276 611 -280 ct 655 -280 l  655 -276 656 -271 656 -266 ct 
656 -261 656 -256 657 -251 ct 657 -245 657 -240 657 -235 ct 657 -230 657 -226 657 -223 ct 
658 -223 l  662 -233 665 -243 669 -250 ct 672 -258 677 -265 682 -270 ct 687 -275 693 -279 700 -281 ct 
707 -284 715 -285 725 -285 ct 729 -285 732 -285 736 -284 ct 739 -284 742 -283 744 -282 ct 
744 -240 l  741 -241 737 -241 733 -242 ct 729 -242 724 -242 719 -242 ct 708 -242 699 -240 692 -235 ct 
684 -230 678 -224 673 -215 ct 668 -207 665 -196 663 -185 ct 660 -173 659 -160 659 -146 ct 
659 0 l  613 0 l  p ef
900 110 m  884 110 870 108 857 105 ct 845 102 834 97 825 91 ct 816 85 809 78 804 69 ct 
798 61 794 51 792 41 ct 839 34 l  842 47 849 57 859 64 ct 870 71 884 75 901 75 ct 
912 75 921 73 930 70 ct 938 67 946 63 952 56 ct 958 50 963 41 966 31 ct 969 20 971 8 971 -7 ct 
971 -52 l  970 -52 l  967 -45 962 -38 957 -32 ct 952 -25 946 -20 939 -15 ct 
931 -10 923 -6 913 -3 ct 904 0 893 2 880 2 ct 862 2 847 -1 834 -7 ct 822 -13 811 -22 803 -34 ct 
795 -46 790 -60 786 -78 ct 782 -96 780 -116 780 -139 ct 780 -162 782 -182 786 -200 ct 
790 -218 796 -233 804 -245 ct 812 -258 823 -267 837 -274 ct 850 -281 866 -284 885 -284 ct 
905 -284 922 -279 937 -270 ct 952 -261 963 -249 971 -232 ct 971 -232 l  971 -236 971 -241 972 -246 ct 
972 -252 972 -257 972 -261 ct 973 -266 973 -270 973 -274 ct 974 -277 974 -279 974 -280 ct 
1019 -280 l  1018 -278 1018 -275 1018 -272 ct 1018 -268 1018 -264 1018 -258 ct 
1017 -253 1017 -248 1017 -241 ct 1017 -235 1017 -228 1017 -222 ct 1017 -8 l 
1017 31 1007 61 988 80 ct 969 100 940 110 900 110 ct p
971 -140 m  971 -159 969 -176 964 -190 ct 960 -204 955 -215 948 -224 ct 941 -233 933 -239 924 -243 ct 
915 -247 906 -249 897 -249 ct 885 -249 875 -247 866 -243 ct 858 -239 850 -233 845 -224 ct 
839 -215 835 -203 832 -190 ct 830 -176 828 -159 828 -140 ct 828 -120 830 -103 832 -89 ct 
835 -75 839 -64 845 -56 ct 850 -47 857 -41 866 -38 ct 874 -34 884 -32 896 -32 ct 
905 -32 914 -34 923 -38 ct 932 -42 940 -49 947 -57 ct 954 -66 960 -77 964 -91 ct 
969 -104 971 -121 971 -140 ct p ef
1133 -130 m  1133 -116 1135 -102 1138 -90 ct 1141 -77 1146 -67 1152 -58 ct 1158 -49 1166 -42 1176 -37 ct 
1186 -32 1198 -30 1212 -30 ct 1232 -30 1248 -34 1260 -42 ct 1272 -50 1281 -60 1285 -73 ct 
1326 -61 l  1323 -53 1319 -46 1313 -38 ct 1308 -30 1301 -23 1292 -17 ct 1284 -10 1273 -5 1259 -1 ct 
1246 3 1230 5 1212 5 ct 1170 5 1139 -7 1117 -32 ct 1095 -57 1085 -93 1085 -142 ct 
1085 -168 1088 -190 1094 -208 ct 1101 -227 1110 -241 1121 -253 ct 1133 -264 1146 -272 1161 -277 ct 
1176 -282 1193 -285 1210 -285 ct 1233 -285 1253 -281 1269 -274 ct 1284 -266 1297 -256 1307 -242 ct 
1316 -229 1323 -213 1327 -195 ct 1331 -177 1333 -158 1333 -137 ct 1333 -130 l 
1133 -130 l  p
1285 -166 m  1282 -195 1275 -217 1263 -230 ct 1250 -244 1232 -251 1209 -251 ct 
1201 -251 1193 -249 1185 -247 ct 1176 -244 1168 -240 1161 -234 ct 1154 -227 1147 -219 1142 -208 ct 
1137 -197 1135 -183 1134 -166 ct 1285 -166 l  p ef
1509 -2 m  1502 0 1495 1 1488 2 ct 1480 3 1472 4 1462 4 ct 1425 4 1406 -17 1406 -59 ct 
1406 -246 l  1374 -246 l  1374 -280 l  1408 -280 l  1422 -343 l  1453 -343 l 
1453 -280 l  1505 -280 l  1505 -246 l  1453 -246 l  1453 -69 l  1453 -56 1455 -47 1460 -41 ct 
1464 -36 1472 -33 1482 -33 ct 1487 -33 1491 -33 1496 -34 ct 1500 -35 1504 -36 1509 -37 ct 
1509 -2 l  p ef
pom
pum
15066 4482 t
357 -186 m  357 -156 353 -129 344 -106 ct 335 -82 322 -63 306 -47 ct 290 -32 272 -20 250 -12 ct 
228 -4 205 0 180 0 ct 43 0 l  43 -365 l  164 -365 l  192 -365 218 -361 242 -354 ct 
266 -347 286 -336 303 -322 ct 320 -307 333 -289 343 -266 ct 353 -244 357 -217 357 -186 ct 
p
308 -186 m  308 -211 304 -232 297 -249 ct 290 -267 280 -281 267 -292 ct 255 -304 239 -312 222 -317 ct 
204 -322 184 -325 163 -325 ct 93 -325 l  93 -40 l  174 -40 l  193 -40 211 -43 227 -49 ct 
244 -55 258 -64 270 -77 ct 282 -89 291 -104 298 -122 ct 304 -141 308 -162 308 -186 ct 
p ef
584 -324 m  584 0 l  535 0 l  535 -324 l  410 -324 l  410 -364 l  710 -364 l 
710 -324 l  584 -324 l  p ef
1086 -186 m  1086 -156 1082 -129 1073 -106 ct 1064 -82 1051 -63 1035 -47 ct 
1019 -32 1001 -20 979 -12 ct 957 -4 934 0 909 0 ct 772 0 l  772 -365 l  893 -365 l 
921 -365 947 -361 971 -354 ct 995 -347 1015 -336 1032 -322 ct 1049 -307 1062 -289 1072 -266 ct 
1082 -244 1086 -217 1086 -186 ct p
1037 -186 m  1037 -211 1033 -232 1026 -249 ct 1019 -267 1009 -281 996 -292 ct 
984 -304 968 -312 951 -317 ct 933 -322 913 -325 892 -325 ct 822 -325 l  822 -40 l 
903 -40 l  922 -40 940 -43 956 -49 ct 973 -55 987 -64 999 -77 ct 1011 -89 1020 -104 1027 -122 ct 
1033 -141 1037 -162 1037 -186 ct p ef
pom
1 lc 0.449 0.625 0.812 c 11000 7887 m  9105 7887 l  9105 6116 l  12895 6116 l 
12895 7887 l  11000 7887 l  pc
pum
9430 6889 t
0.003 0.003 0.003 c 326 -103 m  326 -84 322 -69 315 -55 ct 307 -42 298 -32 285 -24 ct 
273 -15 259 -9 243 -6 ct 227 -2 209 0 192 0 ct 43 0 l  43 -365 l  176 -365 l 
196 -365 214 -363 230 -360 ct 246 -356 259 -351 270 -344 ct 281 -336 290 -327 296 -316 ct 
301 -305 304 -292 304 -276 ct 304 -266 303 -256 300 -247 ct 297 -238 293 -230 287 -223 ct 
281 -216 274 -209 265 -204 ct 257 -199 247 -195 235 -192 ct 250 -190 263 -187 274 -182 ct 
285 -177 295 -171 302 -163 ct 310 -155 316 -146 320 -136 ct 324 -126 326 -115 326 -103 ct 
p
255 -270 m  255 -290 248 -304 234 -312 ct 221 -321 202 -325 176 -325 ct 93 -325 l 
93 -210 l  176 -210 l  190 -210 203 -211 213 -214 ct 223 -217 231 -221 237 -226 ct 
243 -231 248 -238 251 -245 ct 253 -252 255 -261 255 -270 ct p
276 -107 m  276 -118 274 -128 269 -136 ct 265 -144 259 -151 251 -156 ct 243 -161 234 -165 222 -167 ct 
211 -170 199 -171 185 -171 ct 93 -171 l  93 -40 l  189 -40 l  202 -40 213 -41 224 -43 ct 
234 -45 243 -48 251 -54 ct 259 -59 265 -66 269 -74 ct 273 -83 276 -94 276 -107 ct 
p ef
400 -340 m  400 -384 l  447 -384 l  447 -340 l  400 -340 l  p
400 0 m  400 -280 l  447 -280 l  447 0 l  400 0 l  p ef
698 -45 m  690 -27 678 -14 664 -7 ct 650 1 632 5 611 5 ct 576 5 550 -7 533 -31 ct 
517 -55 508 -91 508 -139 ct 508 -237 543 -285 611 -285 ct 632 -285 650 -282 664 -274 ct 
678 -266 690 -254 698 -237 ct 699 -237 l  699 -238 699 -241 699 -245 ct 699 -249 699 -252 699 -257 ct 
699 -261 698 -264 698 -268 ct 698 -272 698 -274 698 -276 ct 698 -384 l  745 -384 l 
745 -58 l  745 -51 745 -45 745 -38 ct 745 -32 745 -27 746 -21 ct 746 -16 746 -12 746 -8 ct 
746 -4 746 -2 747 0 ct 702 0 l  702 -2 701 -4 701 -8 ct 701 -11 701 -14 700 -19 ct 
700 -23 700 -27 700 -32 ct 700 -36 700 -41 700 -45 ct 698 -45 l  p
557 -140 m  557 -121 558 -105 561 -91 ct 563 -77 567 -66 572 -57 ct 578 -48 585 -41 593 -37 ct 
601 -33 611 -31 623 -31 ct 635 -31 646 -33 656 -37 ct 665 -41 673 -47 679 -56 ct 
685 -65 690 -77 694 -91 ct 697 -105 698 -123 698 -144 ct 698 -163 697 -180 694 -194 ct 
690 -208 685 -219 679 -227 ct 673 -236 665 -242 656 -245 ct 646 -249 636 -251 624 -251 ct 
612 -251 602 -249 594 -245 ct 586 -241 579 -235 573 -226 ct 568 -217 564 -206 561 -192 ct 
559 -178 557 -160 557 -140 ct p ef
825 -340 m  825 -384 l  872 -384 l  872 -340 l  825 -340 l  p
825 0 m  825 -280 l  872 -280 l  872 0 l  825 0 l  p ef
950 0 m  950 -215 l  950 -221 950 -227 950 -233 ct 950 -239 949 -245 949 -250 ct 
949 -256 949 -261 949 -266 ct 949 -271 948 -276 948 -280 ct 992 -280 l  992 -276 993 -271 993 -266 ct 
993 -261 993 -256 994 -251 ct 994 -245 994 -240 994 -235 ct 994 -230 994 -226 994 -223 ct 
995 -223 l  999 -233 1002 -243 1006 -250 ct 1009 -258 1014 -265 1019 -270 ct 
1024 -275 1030 -279 1037 -281 ct 1044 -284 1052 -285 1062 -285 ct 1066 -285 1069 -285 1073 -284 ct 
1076 -284 1079 -283 1081 -282 ct 1081 -240 l  1078 -241 1074 -241 1070 -242 ct 
1066 -242 1061 -242 1056 -242 ct 1045 -242 1036 -240 1029 -235 ct 1021 -230 1015 -224 1010 -215 ct 
1005 -207 1002 -196 1000 -185 ct 997 -173 996 -160 996 -146 ct 996 0 l  950 0 l 
p ef
1166 -130 m  1166 -116 1168 -102 1171 -90 ct 1174 -77 1179 -67 1185 -58 ct 1191 -49 1199 -42 1209 -37 ct 
1219 -32 1231 -30 1245 -30 ct 1265 -30 1281 -34 1293 -42 ct 1305 -50 1314 -60 1318 -73 ct 
1359 -61 l  1356 -53 1352 -46 1346 -38 ct 1341 -30 1334 -23 1325 -17 ct 1317 -10 1306 -5 1292 -1 ct 
1279 3 1263 5 1245 5 ct 1203 5 1172 -7 1150 -32 ct 1128 -57 1118 -93 1118 -142 ct 
1118 -168 1121 -190 1127 -208 ct 1134 -227 1143 -241 1154 -253 ct 1166 -264 1179 -272 1194 -277 ct 
1209 -282 1226 -285 1243 -285 ct 1266 -285 1286 -281 1302 -274 ct 1317 -266 1330 -256 1340 -242 ct 
1349 -229 1356 -213 1360 -195 ct 1364 -177 1366 -158 1366 -137 ct 1366 -130 l 
1166 -130 l  p
1318 -166 m  1315 -195 1308 -217 1296 -230 ct 1283 -244 1265 -251 1242 -251 ct 
1234 -251 1226 -249 1218 -247 ct 1209 -244 1201 -240 1194 -234 ct 1187 -227 1180 -219 1175 -208 ct 
1170 -197 1168 -183 1167 -166 ct 1318 -166 l  p ef
1470 -141 m  1470 -125 1471 -111 1474 -97 ct 1476 -84 1480 -72 1485 -62 ct 1491 -53 1498 -45 1507 -40 ct 
1516 -34 1528 -32 1541 -32 ct 1557 -32 1571 -36 1582 -45 ct 1593 -53 1600 -67 1603 -85 ct 
1650 -85 l  1648 -73 1645 -62 1640 -51 ct 1635 -40 1628 -31 1619 -22 ct 1610 -14 1599 -7 1586 -2 ct 
1574 2 1559 5 1542 5 ct 1520 5 1502 1 1486 -6 ct 1471 -14 1458 -24 1449 -37 ct 
1439 -50 1432 -65 1428 -83 ct 1424 -100 1422 -120 1422 -140 ct 1422 -159 1423 -176 1426 -190 ct 
1429 -204 1434 -217 1439 -228 ct 1445 -239 1451 -248 1459 -255 ct 1467 -262 1475 -268 1484 -272 ct 
1493 -277 1502 -280 1512 -282 ct 1522 -284 1532 -285 1542 -285 ct 1557 -285 1571 -283 1584 -279 ct 
1596 -274 1606 -268 1615 -261 ct 1624 -253 1631 -245 1637 -234 ct 1642 -224 1646 -213 1648 -202 ct 
1601 -198 l  1598 -213 1592 -226 1582 -235 ct 1572 -244 1558 -249 1540 -249 ct 
1527 -249 1516 -246 1507 -242 ct 1498 -238 1491 -231 1485 -222 ct 1480 -213 1476 -202 1474 -189 ct 
1471 -175 1470 -159 1470 -141 ct p ef
1819 -2 m  1812 0 1805 1 1798 2 ct 1790 3 1782 4 1772 4 ct 1735 4 1716 -17 1716 -59 ct 
1716 -246 l  1684 -246 l  1684 -280 l  1718 -280 l  1732 -343 l  1763 -343 l 
1763 -280 l  1815 -280 l  1815 -246 l  1763 -246 l  1763 -69 l  1763 -56 1765 -47 1770 -41 ct 
1774 -36 1782 -33 1792 -33 ct 1797 -33 1801 -33 1806 -34 ct 1810 -35 1814 -36 1819 -37 ct 
1819 -2 l  p ef
1864 -340 m  1864 -384 l  1911 -384 l  1911 -340 l  1864 -340 l  p
1864 0 m  1864 -280 l  1911 -280 l  1911 0 l  1864 0 l  p ef
2224 -140 m  2224 -91 2213 -55 2191 -31 ct 2170 -7 2138 5 2097 5 ct 2078 5 2060 2 2045 -4 ct 
2030 -10 2017 -19 2006 -31 ct 1995 -43 1987 -58 1982 -76 ct 1976 -94 1973 -116 1973 -140 ct 
1973 -237 2015 -285 2099 -285 ct 2121 -285 2139 -282 2155 -276 ct 2171 -270 2184 -261 2194 -249 ct 
2204 -237 2211 -222 2216 -204 ct 2221 -185 2224 -164 2224 -140 ct p
2175 -140 m  2175 -162 2173 -180 2170 -194 ct 2166 -208 2161 -219 2155 -228 ct 
2148 -236 2140 -242 2131 -246 ct 2122 -249 2111 -251 2100 -251 ct 2088 -251 2077 -249 2067 -245 ct 
2058 -242 2050 -236 2043 -227 ct 2036 -219 2031 -207 2027 -193 ct 2024 -179 2022 -161 2022 -140 ct 
2022 -119 2024 -101 2028 -86 ct 2032 -72 2037 -61 2044 -52 ct 2050 -44 2058 -38 2067 -35 ct 
2076 -31 2086 -29 2097 -29 ct 2109 -29 2119 -31 2129 -34 ct 2139 -38 2147 -44 2154 -52 ct 
2160 -61 2166 -72 2169 -86 ct 2173 -101 2175 -119 2175 -140 ct p ef
2469 0 m  2469 -177 l  2469 -191 2468 -202 2466 -212 ct 2464 -221 2460 -228 2456 -234 ct 
2451 -239 2445 -243 2438 -246 ct 2431 -248 2422 -249 2411 -249 ct 2400 -249 2390 -247 2381 -243 ct 
2372 -239 2364 -234 2358 -226 ct 2352 -219 2347 -210 2344 -199 ct 2340 -189 2338 -176 2338 -162 ct 
2338 0 l  2292 0 l  2292 -220 l  2292 -226 2292 -232 2292 -239 ct 2292 -245 2291 -251 2291 -257 ct 
2291 -263 2291 -268 2291 -272 ct 2291 -276 2290 -279 2290 -280 ct 2334 -280 l 
2334 -279 2335 -277 2335 -273 ct 2335 -269 2335 -265 2335 -260 ct 2336 -255 2336 -250 2336 -245 ct 
2336 -240 2336 -235 2336 -232 ct 2337 -232 l  2342 -240 2346 -247 2352 -254 ct 
2357 -261 2363 -266 2370 -271 ct 2378 -275 2386 -279 2395 -281 ct 2404 -284 2415 -285 2427 -285 ct 
2442 -285 2455 -283 2467 -279 ct 2478 -276 2487 -270 2494 -262 ct 2502 -254 2507 -244 2510 -231 ct 
2514 -219 2515 -204 2515 -186 ct 2515 0 l  2469 0 l  p ef
2667 5 m  2639 5 2618 -2 2604 -17 ct 2590 -32 2583 -53 2583 -79 ct 2583 -97 2586 -112 2593 -124 ct 
2600 -136 2609 -145 2620 -152 ct 2632 -159 2645 -164 2659 -166 ct 2674 -169 2688 -170 2703 -170 ct 
2766 -170 l  2766 -185 l  2766 -197 2765 -207 2763 -215 ct 2760 -223 2757 -230 2752 -235 ct 
2747 -240 2740 -244 2733 -246 ct 2725 -248 2716 -250 2706 -250 ct 2697 -250 2689 -249 2682 -248 ct 
2675 -246 2668 -244 2663 -241 ct 2658 -237 2653 -233 2650 -227 ct 2647 -221 2645 -214 2644 -205 ct 
2595 -210 l  2597 -221 2600 -231 2605 -240 ct 2610 -249 2616 -257 2625 -264 ct 
2634 -271 2645 -276 2659 -279 ct 2672 -283 2688 -285 2707 -285 ct 2742 -285 2769 -277 2787 -261 ct 
2804 -245 2813 -221 2813 -191 ct 2813 -71 l  2813 -57 2815 -46 2819 -39 ct 2822 -32 2829 -29 2840 -29 ct 
2842 -29 2845 -29 2847 -29 ct 2850 -30 2852 -30 2855 -31 ct 2855 -2 l  2849 0 2843 1 2837 1 ct 
2832 2 2825 2 2819 2 ct 2810 2 2802 1 2796 -1 ct 2790 -4 2785 -7 2781 -12 ct 2777 -17 2774 -22 2772 -29 ct 
2770 -36 2768 -44 2768 -54 ct 2766 -54 l  2761 -45 2756 -37 2750 -29 ct 2744 -22 2737 -16 2729 -11 ct 
2721 -6 2712 -2 2702 1 ct 2692 4 2680 5 2667 5 ct p
2678 -30 m  2693 -30 2706 -33 2717 -38 ct 2728 -43 2737 -50 2744 -59 ct 2752 -67 2757 -76 2761 -86 ct 
2764 -96 2766 -106 2766 -115 ct 2766 -137 l  2715 -137 l  2704 -137 2693 -137 2683 -135 ct 
2673 -134 2664 -131 2656 -127 ct 2648 -122 2642 -116 2637 -108 ct 2633 -101 2630 -90 2630 -78 ct 
2630 -62 2634 -51 2643 -42 ct 2651 -34 2663 -30 2678 -30 ct p ef
2900 0 m  2900 -384 l  2946 -384 l  2946 0 l  2900 0 l  p ef
pom
pum
9905 7484 t
205 -330 m  184 -330 166 -326 150 -319 ct 134 -312 121 -303 110 -290 ct 99 -277 91 -262 85 -244 ct 
80 -226 77 -206 77 -184 ct 77 -162 80 -142 86 -124 ct 92 -106 101 -90 112 -77 ct 
123 -64 136 -54 153 -46 ct 169 -39 187 -36 207 -36 ct 221 -36 234 -37 246 -41 ct 
257 -45 268 -50 277 -57 ct 287 -64 295 -72 303 -81 ct 310 -90 317 -100 322 -111 ct 
363 -91 l  356 -78 348 -65 338 -53 ct 329 -41 317 -31 304 -23 ct 291 -14 276 -7 260 -2 ct 
243 3 225 5 205 5 ct 175 5 149 0 127 -9 ct 105 -18 86 -32 72 -48 ct 57 -65 45 -85 38 -108 ct 
31 -131 27 -157 27 -184 ct 27 -213 31 -238 39 -261 ct 47 -284 58 -304 73 -320 ct 
88 -336 107 -348 129 -357 ct 151 -366 176 -370 204 -370 ct 243 -370 276 -362 302 -347 ct 
328 -332 347 -310 359 -280 ct 312 -264 l  309 -273 304 -281 298 -289 ct 293 -297 285 -304 276 -310 ct 
268 -316 257 -321 245 -324 ct 234 -328 220 -330 205 -330 ct p ef
671 -140 m  671 -91 660 -55 638 -31 ct 617 -7 585 5 544 5 ct 525 5 507 2 492 -4 ct 
477 -10 464 -19 453 -31 ct 442 -43 434 -58 429 -76 ct 423 -94 420 -116 420 -140 ct 
420 -237 462 -285 546 -285 ct 568 -285 586 -282 602 -276 ct 618 -270 631 -261 641 -249 ct 
651 -237 658 -222 663 -204 ct 668 -185 671 -164 671 -140 ct p
622 -140 m  622 -162 620 -180 617 -194 ct 613 -208 608 -219 602 -228 ct 595 -236 587 -242 578 -246 ct 
569 -249 558 -251 547 -251 ct 535 -251 524 -249 514 -245 ct 505 -242 497 -236 490 -227 ct 
483 -219 478 -207 474 -193 ct 471 -179 469 -161 469 -140 ct 469 -119 471 -101 475 -86 ct 
479 -72 484 -61 491 -52 ct 497 -44 505 -38 514 -35 ct 523 -31 533 -29 544 -29 ct 
556 -29 566 -31 576 -34 ct 586 -38 594 -44 601 -52 ct 607 -61 613 -72 616 -86 ct 
620 -101 622 -119 622 -140 ct p ef
901 0 m  901 -177 l  901 -191 900 -202 898 -212 ct 896 -221 894 -228 889 -234 ct 
885 -239 880 -243 874 -246 ct 867 -248 859 -249 850 -249 ct 840 -249 831 -247 823 -243 ct 
815 -239 808 -234 803 -226 ct 797 -219 793 -210 790 -199 ct 787 -189 785 -176 785 -162 ct 
785 0 l  739 0 l  739 -220 l  739 -226 739 -232 739 -239 ct 739 -245 738 -251 738 -257 ct 
738 -263 738 -268 738 -272 ct 738 -276 737 -279 737 -280 ct 781 -280 l  781 -279 782 -277 782 -273 ct 
782 -269 782 -265 782 -260 ct 783 -255 783 -250 783 -245 ct 783 -240 783 -235 783 -232 ct 
784 -232 l  788 -240 793 -247 797 -254 ct 802 -261 808 -266 814 -271 ct 821 -275 828 -279 837 -281 ct 
845 -284 855 -285 866 -285 ct 887 -285 904 -281 916 -272 ct 928 -264 937 -250 942 -232 ct 
943 -232 l  947 -240 951 -247 957 -254 ct 962 -261 968 -266 975 -271 ct 982 -275 989 -279 998 -281 ct 
1007 -284 1017 -285 1028 -285 ct 1042 -285 1054 -283 1064 -279 ct 1074 -276 1083 -270 1089 -262 ct 
1096 -254 1101 -244 1104 -231 ct 1107 -219 1109 -204 1109 -186 ct 1109 0 l  1063 0 l 
1063 -177 l  1063 -191 1062 -202 1060 -212 ct 1058 -221 1055 -228 1051 -234 ct 
1047 -239 1042 -243 1035 -246 ct 1029 -248 1021 -249 1011 -249 ct 1001 -249 993 -247 985 -243 ct 
977 -240 970 -234 964 -227 ct 959 -220 954 -211 951 -200 ct 948 -189 947 -176 947 -162 ct 
947 0 l  901 0 l  p ef
1429 -141 m  1429 -120 1427 -100 1423 -82 ct 1420 -64 1414 -49 1406 -36 ct 1398 -23 1387 -13 1374 -6 ct 
1361 2 1345 5 1326 5 ct 1305 5 1288 2 1273 -6 ct 1258 -14 1246 -26 1239 -43 ct 
1237 -43 l  1237 -43 1238 -41 1238 -39 ct 1238 -36 1238 -32 1238 -28 ct 1238 -24 1238 -20 1238 -14 ct 
1238 -9 1238 -4 1238 1 ct 1238 110 l  1192 110 l  1192 -223 l  1192 -229 1192 -236 1192 -242 ct 
1192 -248 1191 -254 1191 -259 ct 1191 -264 1191 -268 1191 -272 ct 1191 -276 1190 -278 1190 -280 ct 
1235 -280 l  1235 -279 1236 -277 1236 -274 ct 1236 -271 1236 -268 1237 -263 ct 
1237 -259 1237 -254 1237 -249 ct 1238 -244 1238 -239 1238 -235 ct 1239 -235 l 
1243 -244 1248 -252 1254 -258 ct 1259 -264 1265 -269 1272 -273 ct 1280 -277 1287 -280 1296 -282 ct 
1305 -284 1315 -285 1326 -285 ct 1345 -285 1361 -281 1374 -275 ct 1387 -268 1398 -258 1406 -245 ct 
1414 -233 1420 -218 1423 -200 ct 1427 -182 1429 -163 1429 -141 ct p
1380 -140 m  1380 -157 1379 -173 1376 -186 ct 1374 -200 1371 -211 1366 -220 ct 
1361 -230 1354 -237 1345 -242 ct 1337 -247 1326 -249 1314 -249 ct 1303 -249 1294 -248 1284 -245 ct 
1275 -242 1267 -236 1260 -228 ct 1254 -219 1248 -208 1244 -193 ct 1240 -179 1238 -160 1238 -137 ct 
1238 -117 1240 -100 1243 -86 ct 1246 -72 1251 -61 1258 -53 ct 1264 -44 1272 -38 1281 -35 ct 
1290 -31 1301 -29 1313 -29 ct 1326 -29 1337 -32 1345 -37 ct 1354 -42 1361 -49 1366 -58 ct 
1371 -68 1374 -79 1376 -93 ct 1379 -107 1380 -123 1380 -140 ct p ef
1495 -340 m  1495 -384 l  1542 -384 l  1542 -340 l  1495 -340 l  p
1495 0 m  1495 -280 l  1542 -280 l  1542 0 l  1495 0 l  p ef
1618 0 m  1618 -384 l  1664 -384 l  1664 0 l  1618 0 l  p ef
1774 -130 m  1774 -116 1776 -102 1779 -90 ct 1782 -77 1787 -67 1793 -58 ct 1799 -49 1807 -42 1817 -37 ct 
1827 -32 1839 -30 1853 -30 ct 1873 -30 1889 -34 1901 -42 ct 1913 -50 1922 -60 1926 -73 ct 
1967 -61 l  1964 -53 1960 -46 1954 -38 ct 1949 -30 1942 -23 1933 -17 ct 1925 -10 1914 -5 1900 -1 ct 
1887 3 1871 5 1853 5 ct 1811 5 1780 -7 1758 -32 ct 1736 -57 1726 -93 1726 -142 ct 
1726 -168 1729 -190 1735 -208 ct 1742 -227 1751 -241 1762 -253 ct 1774 -264 1787 -272 1802 -277 ct 
1817 -282 1834 -285 1851 -285 ct 1874 -285 1894 -281 1910 -274 ct 1925 -266 1938 -256 1948 -242 ct 
1957 -229 1964 -213 1968 -195 ct 1972 -177 1974 -158 1974 -137 ct 1974 -130 l 
1774 -130 l  p
1926 -166 m  1923 -195 1916 -217 1904 -230 ct 1891 -244 1873 -251 1850 -251 ct 
1842 -251 1834 -249 1826 -247 ct 1817 -244 1809 -240 1802 -234 ct 1795 -227 1788 -219 1783 -208 ct 
1778 -197 1776 -183 1775 -166 ct 1926 -166 l  p ef
2044 0 m  2044 -215 l  2044 -221 2044 -227 2044 -233 ct 2044 -239 2043 -245 2043 -250 ct 
2043 -256 2043 -261 2043 -266 ct 2043 -271 2042 -276 2042 -280 ct 2086 -280 l 
2086 -276 2087 -271 2087 -266 ct 2087 -261 2087 -256 2088 -251 ct 2088 -245 2088 -240 2088 -235 ct 
2088 -230 2088 -226 2088 -223 ct 2089 -223 l  2093 -233 2096 -243 2100 -250 ct 
2103 -258 2108 -265 2113 -270 ct 2118 -275 2124 -279 2131 -281 ct 2138 -284 2146 -285 2156 -285 ct 
2160 -285 2163 -285 2167 -284 ct 2170 -284 2173 -283 2175 -282 ct 2175 -240 l 
2172 -241 2168 -241 2164 -242 ct 2160 -242 2155 -242 2150 -242 ct 2139 -242 2130 -240 2123 -235 ct 
2115 -230 2109 -224 2104 -215 ct 2099 -207 2096 -196 2094 -185 ct 2091 -173 2090 -160 2090 -146 ct 
2090 0 l  2044 0 l  p ef
pom
166 lw 0 lc 0.449 0.625 0.812 c 11025 4886 m  11014 5454 l  ps
11000 6117 m  11252 5427 l  10775 5418 l  11000 6117 l  p ef
6521 4885 m  6521 7003 l  8262 7003 l  ps
9106 7002 m  8223 6717 l  8223 7288 l  9106 7002 l  p ef
15630 4886 m  15630 7003 l  13741 7003 l  ps
12896 7002 m  13780 7288 l  13780 6717 l  12896 7002 l  p ef
11025 7889 m  11025 8458 l  ps
11025 9121 m  11263 8426 l  10786 8426 l  11025 9121 l  p ef
0.800 0.800 0.800 c 10994 13190 m  8046 13190 l  8046 9125 l  13941 9125 l 
13941 13190 l  10994 13190 l  p ef
51 lw 0.449 0.625 0.812 c 10994 13190 m  8046 13190 l  8046 9125 l  13941 9125 l 
13941 13190 l  10994 13190 l  pc
152 lw 5668 10672 m  4545 10672 l  4545 9174 l  6791 9174 l  6791 10672 l 
5668 10672 l  pc
pum
4724 9811 t
0.003 0.003 0.003 c 329 -101 m  329 -85 326 -71 320 -58 ct 314 -45 305 -34 293 -25 ct 
280 -15 265 -8 246 -3 ct 227 2 204 5 179 5 ct 133 5 98 -3 72 -19 ct 47 -35 31 -58 24 -88 ct 
72 -97 l  74 -88 78 -79 83 -71 ct 88 -64 95 -57 103 -51 ct 112 -46 123 -41 135 -38 ct 
148 -35 163 -34 180 -34 ct 195 -34 209 -35 221 -37 ct 233 -40 244 -44 252 -49 ct 
261 -54 268 -61 273 -69 ct 278 -77 280 -87 280 -98 ct 280 -110 278 -120 272 -127 ct 
267 -135 259 -141 249 -146 ct 239 -150 228 -154 214 -158 ct 200 -161 185 -164 169 -168 ct 
159 -171 148 -173 138 -176 ct 128 -178 118 -182 109 -185 ct 99 -189 90 -193 82 -198 ct 
74 -203 67 -209 61 -216 ct 55 -223 50 -231 46 -241 ct 43 -250 41 -260 41 -273 ct 
41 -290 45 -305 52 -317 ct 59 -329 68 -339 81 -347 ct 93 -355 108 -361 125 -365 ct 
142 -368 160 -370 180 -370 ct 202 -370 222 -368 238 -365 ct 254 -361 267 -356 278 -349 ct 
289 -342 298 -333 305 -323 ct 311 -312 317 -300 321 -286 ct 272 -278 l  270 -286 266 -294 262 -301 ct 
257 -308 251 -314 244 -319 ct 236 -323 227 -327 216 -329 ct 206 -332 193 -333 179 -333 ct 
162 -333 148 -331 137 -328 ct 125 -325 116 -321 109 -316 ct 102 -311 97 -305 94 -298 ct 
91 -291 89 -283 89 -275 ct 89 -264 92 -255 97 -248 ct 103 -241 110 -236 120 -231 ct 
129 -226 140 -222 152 -219 ct 164 -216 177 -213 191 -210 ct 202 -207 213 -205 225 -202 ct 
236 -199 246 -196 256 -192 ct 267 -189 276 -184 285 -179 ct 294 -174 302 -168 308 -161 ct 
315 -154 320 -145 324 -135 ct 327 -126 329 -114 329 -101 ct p ef
638 -140 m  638 -91 627 -55 605 -31 ct 584 -7 552 5 511 5 ct 492 5 474 2 459 -4 ct 
444 -10 431 -19 420 -31 ct 409 -43 401 -58 396 -76 ct 390 -94 387 -116 387 -140 ct 
387 -237 429 -285 513 -285 ct 535 -285 553 -282 569 -276 ct 585 -270 598 -261 608 -249 ct 
618 -237 625 -222 630 -204 ct 635 -185 638 -164 638 -140 ct p
589 -140 m  589 -162 587 -180 584 -194 ct 580 -208 575 -219 569 -228 ct 562 -236 554 -242 545 -246 ct 
536 -249 525 -251 514 -251 ct 502 -251 491 -249 481 -245 ct 472 -242 464 -236 457 -227 ct 
450 -219 445 -207 441 -193 ct 438 -179 436 -161 436 -140 ct 436 -119 438 -101 442 -86 ct 
446 -72 451 -61 458 -52 ct 464 -44 472 -38 481 -35 ct 490 -31 500 -29 511 -29 ct 
523 -29 533 -31 543 -34 ct 553 -38 561 -44 568 -52 ct 574 -61 580 -72 583 -86 ct 
587 -101 589 -119 589 -140 ct p ef
750 -280 m  750 -103 l  750 -89 751 -78 753 -68 ct 755 -59 758 -52 763 -46 ct 
767 -41 773 -37 781 -34 ct 788 -32 797 -31 808 -31 ct 819 -31 829 -33 838 -37 ct 
847 -41 854 -46 861 -54 ct 867 -61 872 -70 875 -81 ct 879 -92 880 -104 880 -118 ct 
880 -280 l  927 -280 l  927 -60 l  927 -54 927 -48 927 -41 ct 927 -35 927 -29 928 -23 ct 
928 -17 928 -12 928 -8 ct 928 -4 928 -1 929 0 ct 885 0 l  884 -1 884 -3 884 -7 ct 
884 -11 884 -15 883 -20 ct 883 -25 883 -30 883 -35 ct 883 -40 883 -45 883 -48 ct 
882 -48 l  877 -40 872 -33 867 -26 ct 862 -19 855 -14 848 -9 ct 841 -5 833 -1 824 1 ct 
815 4 804 5 792 5 ct 777 5 763 3 752 -1 ct 741 -4 732 -10 724 -18 ct 717 -26 712 -36 708 -49 ct 
705 -61 703 -76 703 -94 ct 703 -280 l  750 -280 l  p ef
1011 0 m  1011 -215 l  1011 -221 1011 -227 1011 -233 ct 1011 -239 1010 -245 1010 -250 ct 
1010 -256 1010 -261 1010 -266 ct 1010 -271 1009 -276 1009 -280 ct 1053 -280 l 
1053 -276 1054 -271 1054 -266 ct 1054 -261 1054 -256 1055 -251 ct 1055 -245 1055 -240 1055 -235 ct 
1055 -230 1055 -226 1055 -223 ct 1056 -223 l  1060 -233 1063 -243 1067 -250 ct 
1070 -258 1075 -265 1080 -270 ct 1085 -275 1091 -279 1098 -281 ct 1105 -284 1113 -285 1123 -285 ct 
1127 -285 1130 -285 1134 -284 ct 1137 -284 1140 -283 1142 -282 ct 1142 -240 l 
1139 -241 1135 -241 1131 -242 ct 1127 -242 1122 -242 1117 -242 ct 1106 -242 1097 -240 1090 -235 ct 
1082 -230 1076 -224 1071 -215 ct 1066 -207 1063 -196 1061 -185 ct 1058 -173 1057 -160 1057 -146 ct 
1057 0 l  1011 0 l  p ef
1227 -141 m  1227 -125 1228 -111 1231 -97 ct 1233 -84 1237 -72 1242 -62 ct 1248 -53 1255 -45 1264 -40 ct 
1273 -34 1285 -32 1298 -32 ct 1314 -32 1328 -36 1339 -45 ct 1350 -53 1357 -67 1360 -85 ct 
1407 -85 l  1405 -73 1402 -62 1397 -51 ct 1392 -40 1385 -31 1376 -22 ct 1367 -14 1356 -7 1343 -2 ct 
1331 2 1316 5 1299 5 ct 1277 5 1259 1 1243 -6 ct 1228 -14 1215 -24 1206 -37 ct 
1196 -50 1189 -65 1185 -83 ct 1181 -100 1179 -120 1179 -140 ct 1179 -159 1180 -176 1183 -190 ct 
1186 -204 1191 -217 1196 -228 ct 1202 -239 1208 -248 1216 -255 ct 1224 -262 1232 -268 1241 -272 ct 
1250 -277 1259 -280 1269 -282 ct 1279 -284 1289 -285 1299 -285 ct 1314 -285 1328 -283 1341 -279 ct 
1353 -274 1363 -268 1372 -261 ct 1381 -253 1388 -245 1394 -234 ct 1399 -224 1403 -213 1405 -202 ct 
1358 -198 l  1355 -213 1349 -226 1339 -235 ct 1329 -244 1315 -249 1297 -249 ct 
1284 -249 1273 -246 1264 -242 ct 1255 -238 1248 -231 1242 -222 ct 1237 -213 1233 -202 1231 -189 ct 
1228 -175 1227 -159 1227 -141 ct p ef
1502 -130 m  1502 -116 1504 -102 1507 -90 ct 1510 -77 1515 -67 1521 -58 ct 1527 -49 1535 -42 1545 -37 ct 
1555 -32 1567 -30 1581 -30 ct 1601 -30 1617 -34 1629 -42 ct 1641 -50 1650 -60 1654 -73 ct 
1695 -61 l  1692 -53 1688 -46 1682 -38 ct 1677 -30 1670 -23 1661 -17 ct 1653 -10 1642 -5 1628 -1 ct 
1615 3 1599 5 1581 5 ct 1539 5 1508 -7 1486 -32 ct 1464 -57 1454 -93 1454 -142 ct 
1454 -168 1457 -190 1463 -208 ct 1470 -227 1479 -241 1490 -253 ct 1502 -264 1515 -272 1530 -277 ct 
1545 -282 1562 -285 1579 -285 ct 1602 -285 1622 -281 1638 -274 ct 1653 -266 1666 -256 1676 -242 ct 
1685 -229 1692 -213 1696 -195 ct 1700 -177 1702 -158 1702 -137 ct 1702 -130 l 
1502 -130 l  p
1654 -166 m  1651 -195 1644 -217 1632 -230 ct 1619 -244 1601 -251 1578 -251 ct 
1570 -251 1562 -249 1554 -247 ct 1545 -244 1537 -240 1530 -234 ct 1523 -227 1516 -219 1511 -208 ct 
1506 -197 1504 -183 1503 -166 ct 1654 -166 l  p ef
pom
pum
5107 10406 t
288 0 m  178 -159 l  67 0 l  12 0 l  151 -189 l  23 -364 l  77 -364 l 
179 -221 l  277 -364 l  332 -364 l  207 -191 l  342 0 l  288 0 l  p ef
719 0 m  719 -243 l  719 -252 719 -261 719 -270 ct 719 -279 719 -288 720 -295 ct 
720 -304 720 -312 721 -321 ct 718 -312 716 -303 713 -295 ct 711 -287 709 -279 706 -271 ct 
703 -263 701 -255 698 -248 ct 604 0 l  569 0 l  474 -248 l  473 -251 472 -254 470 -257 ct 
469 -261 468 -264 467 -268 ct 466 -272 464 -276 463 -280 ct 462 -284 460 -288 459 -292 ct 
456 -301 453 -311 451 -321 ct 451 -311 451 -301 451 -292 ct 452 -284 452 -275 452 -267 ct 
452 -258 452 -250 452 -243 ct 452 0 l  408 0 l  408 -364 l  473 -364 l  570 -112 l 
572 -108 573 -104 575 -98 ct 577 -93 578 -87 580 -82 ct 581 -76 583 -71 584 -66 ct 
585 -60 586 -57 587 -54 ct 587 -57 588 -61 590 -66 ct 591 -71 593 -76 594 -82 ct 
596 -88 598 -93 600 -99 ct 601 -104 603 -108 604 -112 ct 700 -364 l  763 -364 l 
763 0 l  719 0 l  p ef
862 0 m  862 -365 l  912 -365 l  912 -40 l  1096 -40 l  1096 0 l  862 0 l 
p ef
pom
0.449 0.625 0.812 c 16389 10673 m  15267 10673 l  15267 9175 l  17512 9175 l 
17512 10673 l  16389 10673 l  pc
pum
15552 9812 t
0.003 0.003 0.003 c 186 -324 m  186 0 l  137 0 l  137 -324 l  12 -324 l  12 -364 l 
312 -364 l  312 -324 l  186 -324 l  p ef
379 5 m  351 5 330 -2 316 -17 ct 302 -32 295 -53 295 -79 ct 295 -97 298 -112 305 -124 ct 
312 -136 321 -145 332 -152 ct 344 -159 357 -164 371 -166 ct 386 -169 400 -170 415 -170 ct 
478 -170 l  478 -185 l  478 -197 477 -207 475 -215 ct 472 -223 469 -230 464 -235 ct 
459 -240 452 -244 445 -246 ct 437 -248 428 -250 418 -250 ct 409 -250 401 -249 394 -248 ct 
387 -246 380 -244 375 -241 ct 370 -237 365 -233 362 -227 ct 359 -221 357 -214 356 -205 ct 
307 -210 l  309 -221 312 -231 317 -240 ct 322 -249 328 -257 337 -264 ct 346 -271 357 -276 371 -279 ct 
384 -283 400 -285 419 -285 ct 454 -285 481 -277 499 -261 ct 516 -245 525 -221 525 -191 ct 
525 -71 l  525 -57 527 -46 531 -39 ct 534 -32 541 -29 552 -29 ct 554 -29 557 -29 559 -29 ct 
562 -30 564 -30 567 -31 ct 567 -2 l  561 0 555 1 549 1 ct 544 2 537 2 531 2 ct 
522 2 514 1 508 -1 ct 502 -4 497 -7 493 -12 ct 489 -17 486 -22 484 -29 ct 482 -36 480 -44 480 -54 ct 
478 -54 l  473 -45 468 -37 462 -29 ct 456 -22 449 -16 441 -11 ct 433 -6 424 -2 414 1 ct 
404 4 392 5 379 5 ct p
390 -30 m  405 -30 418 -33 429 -38 ct 440 -43 449 -50 456 -59 ct 464 -67 469 -76 473 -86 ct 
476 -96 478 -106 478 -115 ct 478 -137 l  427 -137 l  416 -137 405 -137 395 -135 ct 
385 -134 376 -131 368 -127 ct 360 -122 354 -116 349 -108 ct 345 -101 342 -90 342 -78 ct 
342 -62 346 -51 355 -42 ct 363 -34 375 -30 390 -30 ct p ef
613 0 m  613 -215 l  613 -221 613 -227 613 -233 ct 613 -239 612 -245 612 -250 ct 
612 -256 612 -261 612 -266 ct 612 -271 611 -276 611 -280 ct 655 -280 l  655 -276 656 -271 656 -266 ct 
656 -261 656 -256 657 -251 ct 657 -245 657 -240 657 -235 ct 657 -230 657 -226 657 -223 ct 
658 -223 l  662 -233 665 -243 669 -250 ct 672 -258 677 -265 682 -270 ct 687 -275 693 -279 700 -281 ct 
707 -284 715 -285 725 -285 ct 729 -285 732 -285 736 -284 ct 739 -284 742 -283 744 -282 ct 
744 -240 l  741 -241 737 -241 733 -242 ct 729 -242 724 -242 719 -242 ct 708 -242 699 -240 692 -235 ct 
684 -230 678 -224 673 -215 ct 668 -207 665 -196 663 -185 ct 660 -173 659 -160 659 -146 ct 
659 0 l  613 0 l  p ef
900 110 m  884 110 870 108 857 105 ct 845 102 834 97 825 91 ct 816 85 809 78 804 69 ct 
798 61 794 51 792 41 ct 839 34 l  842 47 849 57 859 64 ct 870 71 884 75 901 75 ct 
912 75 921 73 930 70 ct 938 67 946 63 952 56 ct 958 50 963 41 966 31 ct 969 20 971 8 971 -7 ct 
971 -52 l  970 -52 l  967 -45 962 -38 957 -32 ct 952 -25 946 -20 939 -15 ct 
931 -10 923 -6 913 -3 ct 904 0 893 2 880 2 ct 862 2 847 -1 834 -7 ct 822 -13 811 -22 803 -34 ct 
795 -46 790 -60 786 -78 ct 782 -96 780 -116 780 -139 ct 780 -162 782 -182 786 -200 ct 
790 -218 796 -233 804 -245 ct 812 -258 823 -267 837 -274 ct 850 -281 866 -284 885 -284 ct 
905 -284 922 -279 937 -270 ct 952 -261 963 -249 971 -232 ct 971 -232 l  971 -236 971 -241 972 -246 ct 
972 -252 972 -257 972 -261 ct 973 -266 973 -270 973 -274 ct 974 -277 974 -279 974 -280 ct 
1019 -280 l  1018 -278 1018 -275 1018 -272 ct 1018 -268 1018 -264 1018 -258 ct 
1017 -253 1017 -248 1017 -241 ct 1017 -235 1017 -228 1017 -222 ct 1017 -8 l 
1017 31 1007 61 988 80 ct 969 100 940 110 900 110 ct p
971 -140 m  971 -159 969 -176 964 -190 ct 960 -204 955 -215 948 -224 ct 941 -233 933 -239 924 -243 ct 
915 -247 906 -249 897 -249 ct 885 -249 875 -247 866 -243 ct 858 -239 850 -233 845 -224 ct 
839 -215 835 -203 832 -190 ct 830 -176 828 -159 828 -140 ct 828 -120 830 -103 832 -89 ct 
835 -75 839 -64 845 -56 ct 850 -47 857 -41 866 -38 ct 874 -34 884 -32 896 -32 ct 
905 -32 914 -34 923 -38 ct 932 -42 940 -49 947 -57 ct 954 -66 960 -77 964 -91 ct 
969 -104 971 -121 971 -140 ct p ef
1133 -130 m  1133 -116 1135 -102 1138 -90 ct 1141 -77 1146 -67 1152 -58 ct 1158 -49 1166 -42 1176 -37 ct 
1186 -32 1198 -30 1212 -30 ct 1232 -30 1248 -34 1260 -42 ct 1272 -50 1281 -60 1285 -73 ct 
1326 -61 l  1323 -53 1319 -46 1313 -38 ct 1308 -30 1301 -23 1292 -17 ct 1284 -10 1273 -5 1259 -1 ct 
1246 3 1230 5 1212 5 ct 1170 5 1139 -7 1117 -32 ct 1095 -57 1085 -93 1085 -142 ct 
1085 -168 1088 -190 1094 -208 ct 1101 -227 1110 -241 1121 -253 ct 1133 -264 1146 -272 1161 -277 ct 
1176 -282 1193 -285 1210 -285 ct 1233 -285 1253 -281 1269 -274 ct 1284 -266 1297 -256 1307 -242 ct 
1316 -229 1323 -213 1327 -195 ct 1331 -177 1333 -158 1333 -137 ct 1333 -130 l 
1133 -130 l  p
1285 -166 m  1282 -195 1275 -217 1263 -230 ct 1250 -244 1232 -251 1209 -251 ct 
1201 -251 1193 -249 1185 -247 ct 1176 -244 1168 -240 1161 -234 ct 1154 -227 1147 -219 1142 -208 ct 
1137 -197 1135 -183 1134 -166 ct 1285 -166 l  p ef
1509 -2 m  1502 0 1495 1 1488 2 ct 1480 3 1472 4 1462 4 ct 1425 4 1406 -17 1406 -59 ct 
1406 -246 l  1374 -246 l  1374 -280 l  1408 -280 l  1422 -343 l  1453 -343 l 
1453 -280 l  1505 -280 l  1505 -246 l  1453 -246 l  1453 -69 l  1453 -56 1455 -47 1460 -41 ct 
1464 -36 1472 -33 1482 -33 ct 1487 -33 1491 -33 1496 -34 ct 1500 -35 1504 -36 1509 -37 ct 
1509 -2 l  p ef
pom
pum
15828 10407 t
288 0 m  178 -159 l  67 0 l  12 0 l  151 -189 l  23 -364 l  77 -364 l 
179 -221 l  277 -364 l  332 -364 l  207 -191 l  342 0 l  288 0 l  p ef
719 0 m  719 -243 l  719 -252 719 -261 719 -270 ct 719 -279 719 -288 720 -295 ct 
720 -304 720 -312 721 -321 ct 718 -312 716 -303 713 -295 ct 711 -287 709 -279 706 -271 ct 
703 -263 701 -255 698 -248 ct 604 0 l  569 0 l  474 -248 l  473 -251 472 -254 470 -257 ct 
469 -261 468 -264 467 -268 ct 466 -272 464 -276 463 -280 ct 462 -284 460 -288 459 -292 ct 
456 -301 453 -311 451 -321 ct 451 -311 451 -301 451 -292 ct 452 -284 452 -275 452 -267 ct 
452 -258 452 -250 452 -243 ct 452 0 l  408 0 l  408 -364 l  473 -364 l  570 -112 l 
572 -108 573 -104 575 -98 ct 577 -93 578 -87 580 -82 ct 581 -76 583 -71 584 -66 ct 
585 -60 586 -57 587 -54 ct 587 -57 588 -61 590 -66 ct 591 -71 593 -76 594 -82 ct 
596 -88 598 -93 600 -99 ct 601 -104 603 -108 604 -112 ct 700 -364 l  763 -364 l 
763 0 l  719 0 l  p ef
862 0 m  862 -365 l  912 -365 l  912 -40 l  1096 -40 l  1096 0 l  862 0 l 
p ef
pom
0.449 0.625 0.812 c 4614 12603 m  2508 12603 l  2508 11105 l  6720 11105 l 
6720 12603 l  4614 12603 l  pc
pum
2555 11742 t
0.003 0.003 0.003 c 189 5 m  169 5 150 2 132 -3 ct 114 -8 99 -17 85 -28 ct 71 -39 61 -54 53 -71 ct 
45 -88 41 -109 41 -133 ct 41 -365 l  90 -365 l  90 -137 l  90 -118 93 -103 98 -90 ct 
103 -77 109 -66 118 -58 ct 127 -50 137 -44 149 -41 ct 161 -37 175 -35 189 -35 ct 
203 -35 216 -37 229 -41 ct 242 -45 253 -51 262 -59 ct 272 -67 279 -78 285 -91 ct 
290 -105 293 -121 293 -140 ct 293 -365 l  342 -365 l  342 -137 l  342 -113 338 -92 330 -74 ct 
322 -56 311 -41 297 -30 ct 283 -18 267 -9 249 -4 ct 230 2 210 5 189 5 ct p ef
671 -141 m  671 -120 669 -100 665 -82 ct 662 -64 656 -49 648 -36 ct 640 -23 629 -13 616 -6 ct 
603 2 587 5 568 5 ct 547 5 530 2 515 -6 ct 500 -14 488 -26 481 -43 ct 479 -43 l 
479 -43 480 -41 480 -39 ct 480 -36 480 -32 480 -28 ct 480 -24 480 -20 480 -14 ct 
480 -9 480 -4 480 1 ct 480 110 l  434 110 l  434 -223 l  434 -229 434 -236 434 -242 ct 
434 -248 433 -254 433 -259 ct 433 -264 433 -268 433 -272 ct 433 -276 432 -278 432 -280 ct 
477 -280 l  477 -279 478 -277 478 -274 ct 478 -271 478 -268 479 -263 ct 479 -259 479 -254 479 -249 ct 
480 -244 480 -239 480 -235 ct 481 -235 l  485 -244 490 -252 496 -258 ct 501 -264 507 -269 514 -273 ct 
522 -277 529 -280 538 -282 ct 547 -284 557 -285 568 -285 ct 587 -285 603 -281 616 -275 ct 
629 -268 640 -258 648 -245 ct 656 -233 662 -218 665 -200 ct 669 -182 671 -163 671 -141 ct 
p
622 -140 m  622 -157 621 -173 618 -186 ct 616 -200 613 -211 608 -220 ct 603 -230 596 -237 587 -242 ct 
579 -247 568 -249 556 -249 ct 545 -249 536 -248 526 -245 ct 517 -242 509 -236 502 -228 ct 
496 -219 490 -208 486 -193 ct 482 -179 480 -160 480 -137 ct 480 -117 482 -100 485 -86 ct 
488 -72 493 -61 500 -53 ct 506 -44 514 -38 523 -35 ct 532 -31 543 -29 555 -29 ct 
568 -29 579 -32 587 -37 ct 596 -42 603 -49 608 -58 ct 613 -68 616 -79 618 -93 ct 
621 -107 622 -123 622 -140 ct p ef
914 -45 m  906 -27 894 -14 880 -7 ct 866 1 848 5 827 5 ct 792 5 766 -7 749 -31 ct 
733 -55 724 -91 724 -139 ct 724 -237 759 -285 827 -285 ct 848 -285 866 -282 880 -274 ct 
894 -266 906 -254 914 -237 ct 915 -237 l  915 -238 915 -241 915 -245 ct 915 -249 915 -252 915 -257 ct 
915 -261 914 -264 914 -268 ct 914 -272 914 -274 914 -276 ct 914 -384 l  961 -384 l 
961 -58 l  961 -51 961 -45 961 -38 ct 961 -32 961 -27 962 -21 ct 962 -16 962 -12 962 -8 ct 
962 -4 962 -2 963 0 ct 918 0 l  918 -2 917 -4 917 -8 ct 917 -11 917 -14 916 -19 ct 
916 -23 916 -27 916 -32 ct 916 -36 916 -41 916 -45 ct 914 -45 l  p
773 -140 m  773 -121 774 -105 777 -91 ct 779 -77 783 -66 788 -57 ct 794 -48 801 -41 809 -37 ct 
817 -33 827 -31 839 -31 ct 851 -31 862 -33 872 -37 ct 881 -41 889 -47 895 -56 ct 
901 -65 906 -77 910 -91 ct 913 -105 914 -123 914 -144 ct 914 -163 913 -180 910 -194 ct 
906 -208 901 -219 895 -227 ct 889 -236 881 -242 872 -245 ct 862 -249 852 -251 840 -251 ct 
828 -251 818 -249 810 -245 ct 802 -241 795 -235 789 -226 ct 784 -217 780 -206 777 -192 ct 
775 -178 773 -160 773 -140 ct p ef
1113 5 m  1085 5 1064 -2 1050 -17 ct 1036 -32 1029 -53 1029 -79 ct 1029 -97 1032 -112 1039 -124 ct 
1046 -136 1055 -145 1066 -152 ct 1078 -159 1091 -164 1105 -166 ct 1120 -169 1134 -170 1149 -170 ct 
1212 -170 l  1212 -185 l  1212 -197 1211 -207 1209 -215 ct 1206 -223 1203 -230 1198 -235 ct 
1193 -240 1186 -244 1179 -246 ct 1171 -248 1162 -250 1152 -250 ct 1143 -250 1135 -249 1128 -248 ct 
1121 -246 1114 -244 1109 -241 ct 1104 -237 1099 -233 1096 -227 ct 1093 -221 1091 -214 1090 -205 ct 
1041 -210 l  1043 -221 1046 -231 1051 -240 ct 1056 -249 1062 -257 1071 -264 ct 
1080 -271 1091 -276 1105 -279 ct 1118 -283 1134 -285 1153 -285 ct 1188 -285 1215 -277 1233 -261 ct 
1250 -245 1259 -221 1259 -191 ct 1259 -71 l  1259 -57 1261 -46 1265 -39 ct 1268 -32 1275 -29 1286 -29 ct 
1288 -29 1291 -29 1293 -29 ct 1296 -30 1298 -30 1301 -31 ct 1301 -2 l  1295 0 1289 1 1283 1 ct 
1278 2 1271 2 1265 2 ct 1256 2 1248 1 1242 -1 ct 1236 -4 1231 -7 1227 -12 ct 1223 -17 1220 -22 1218 -29 ct 
1216 -36 1214 -44 1214 -54 ct 1212 -54 l  1207 -45 1202 -37 1196 -29 ct 1190 -22 1183 -16 1175 -11 ct 
1167 -6 1158 -2 1148 1 ct 1138 4 1126 5 1113 5 ct p
1124 -30 m  1139 -30 1152 -33 1163 -38 ct 1174 -43 1183 -50 1190 -59 ct 1198 -67 1203 -76 1207 -86 ct 
1210 -96 1212 -106 1212 -115 ct 1212 -137 l  1161 -137 l  1150 -137 1139 -137 1129 -135 ct 
1119 -134 1110 -131 1102 -127 ct 1094 -122 1088 -116 1083 -108 ct 1079 -101 1076 -90 1076 -78 ct 
1076 -62 1080 -51 1089 -42 ct 1097 -34 1109 -30 1124 -30 ct p ef
1453 -2 m  1446 0 1439 1 1432 2 ct 1424 3 1416 4 1406 4 ct 1369 4 1350 -17 1350 -59 ct 
1350 -246 l  1318 -246 l  1318 -280 l  1352 -280 l  1366 -343 l  1397 -343 l 
1397 -280 l  1449 -280 l  1449 -246 l  1397 -246 l  1397 -69 l  1397 -56 1399 -47 1404 -41 ct 
1408 -36 1416 -33 1426 -33 ct 1431 -33 1435 -33 1440 -34 ct 1444 -35 1448 -36 1453 -37 ct 
1453 -2 l  p ef
1535 -130 m  1535 -116 1537 -102 1540 -90 ct 1543 -77 1548 -67 1554 -58 ct 1560 -49 1568 -42 1578 -37 ct 
1588 -32 1600 -30 1614 -30 ct 1634 -30 1650 -34 1662 -42 ct 1674 -50 1683 -60 1687 -73 ct 
1728 -61 l  1725 -53 1721 -46 1715 -38 ct 1710 -30 1703 -23 1694 -17 ct 1686 -10 1675 -5 1661 -1 ct 
1648 3 1632 5 1614 5 ct 1572 5 1541 -7 1519 -32 ct 1497 -57 1487 -93 1487 -142 ct 
1487 -168 1490 -190 1496 -208 ct 1503 -227 1512 -241 1523 -253 ct 1535 -264 1548 -272 1563 -277 ct 
1578 -282 1595 -285 1612 -285 ct 1635 -285 1655 -281 1671 -274 ct 1686 -266 1699 -256 1709 -242 ct 
1718 -229 1725 -213 1729 -195 ct 1733 -177 1735 -158 1735 -137 ct 1735 -130 l 
1535 -130 l  p
1687 -166 m  1684 -195 1677 -217 1665 -230 ct 1652 -244 1634 -251 1611 -251 ct 
1603 -251 1595 -249 1587 -247 ct 1578 -244 1570 -240 1563 -234 ct 1556 -227 1549 -219 1544 -208 ct 
1539 -197 1537 -183 1536 -166 ct 1687 -166 l  p ef
1980 -45 m  1972 -27 1960 -14 1946 -7 ct 1932 1 1914 5 1893 5 ct 1858 5 1832 -7 1815 -31 ct 
1799 -55 1790 -91 1790 -139 ct 1790 -237 1825 -285 1893 -285 ct 1914 -285 1932 -282 1946 -274 ct 
1960 -266 1972 -254 1980 -237 ct 1981 -237 l  1981 -238 1981 -241 1981 -245 ct 
1981 -249 1981 -252 1981 -257 ct 1981 -261 1980 -264 1980 -268 ct 1980 -272 1980 -274 1980 -276 ct 
1980 -384 l  2027 -384 l  2027 -58 l  2027 -51 2027 -45 2027 -38 ct 2027 -32 2027 -27 2028 -21 ct 
2028 -16 2028 -12 2028 -8 ct 2028 -4 2028 -2 2029 0 ct 1984 0 l  1984 -2 1983 -4 1983 -8 ct 
1983 -11 1983 -14 1982 -19 ct 1982 -23 1982 -27 1982 -32 ct 1982 -36 1982 -41 1982 -45 ct 
1980 -45 l  p
1839 -140 m  1839 -121 1840 -105 1843 -91 ct 1845 -77 1849 -66 1854 -57 ct 1860 -48 1867 -41 1875 -37 ct 
1883 -33 1893 -31 1905 -31 ct 1917 -31 1928 -33 1938 -37 ct 1947 -41 1955 -47 1961 -56 ct 
1967 -65 1972 -77 1976 -91 ct 1979 -105 1980 -123 1980 -144 ct 1980 -163 1979 -180 1976 -194 ct 
1972 -208 1967 -219 1961 -227 ct 1955 -236 1947 -242 1938 -245 ct 1928 -249 1918 -251 1906 -251 ct 
1894 -251 1884 -249 1876 -245 ct 1868 -241 1861 -235 1855 -226 ct 1850 -217 1846 -206 1843 -192 ct 
1841 -178 1839 -160 1839 -140 ct p ef
2556 -101 m  2556 -85 2553 -71 2547 -58 ct 2541 -45 2532 -34 2520 -25 ct 2507 -15 2492 -8 2473 -3 ct 
2454 2 2431 5 2406 5 ct 2360 5 2325 -3 2299 -19 ct 2274 -35 2258 -58 2251 -88 ct 
2299 -97 l  2301 -88 2305 -79 2310 -71 ct 2315 -64 2322 -57 2330 -51 ct 2339 -46 2350 -41 2362 -38 ct 
2375 -35 2390 -34 2407 -34 ct 2422 -34 2436 -35 2448 -37 ct 2460 -40 2471 -44 2479 -49 ct 
2488 -54 2495 -61 2500 -69 ct 2505 -77 2507 -87 2507 -98 ct 2507 -110 2505 -120 2499 -127 ct 
2494 -135 2486 -141 2476 -146 ct 2466 -150 2455 -154 2441 -158 ct 2427 -161 2412 -164 2396 -168 ct 
2386 -171 2375 -173 2365 -176 ct 2355 -178 2345 -182 2336 -185 ct 2326 -189 2317 -193 2309 -198 ct 
2301 -203 2294 -209 2288 -216 ct 2282 -223 2277 -231 2273 -241 ct 2270 -250 2268 -260 2268 -273 ct 
2268 -290 2272 -305 2279 -317 ct 2286 -329 2295 -339 2308 -347 ct 2320 -355 2335 -361 2352 -365 ct 
2369 -368 2387 -370 2407 -370 ct 2429 -370 2449 -368 2465 -365 ct 2481 -361 2494 -356 2505 -349 ct 
2516 -342 2525 -333 2532 -323 ct 2538 -312 2544 -300 2548 -286 ct 2499 -278 l 
2497 -286 2493 -294 2489 -301 ct 2484 -308 2478 -314 2471 -319 ct 2463 -323 2454 -327 2443 -329 ct 
2433 -332 2420 -333 2406 -333 ct 2389 -333 2375 -331 2364 -328 ct 2352 -325 2343 -321 2336 -316 ct 
2329 -311 2324 -305 2321 -298 ct 2318 -291 2316 -283 2316 -275 ct 2316 -264 2319 -255 2324 -248 ct 
2330 -241 2337 -236 2347 -231 ct 2356 -226 2367 -222 2379 -219 ct 2391 -216 2404 -213 2418 -210 ct 
2429 -207 2440 -205 2452 -202 ct 2463 -199 2473 -196 2483 -192 ct 2494 -189 2503 -184 2512 -179 ct 
2521 -174 2529 -168 2535 -161 ct 2542 -154 2547 -145 2551 -135 ct 2554 -126 2556 -114 2556 -101 ct 
p ef
2865 -140 m  2865 -91 2854 -55 2832 -31 ct 2811 -7 2779 5 2738 5 ct 2719 5 2701 2 2686 -4 ct 
2671 -10 2658 -19 2647 -31 ct 2636 -43 2628 -58 2623 -76 ct 2617 -94 2614 -116 2614 -140 ct 
2614 -237 2656 -285 2740 -285 ct 2762 -285 2780 -282 2796 -276 ct 2812 -270 2825 -261 2835 -249 ct 
2845 -237 2852 -222 2857 -204 ct 2862 -185 2865 -164 2865 -140 ct p
2816 -140 m  2816 -162 2814 -180 2811 -194 ct 2807 -208 2802 -219 2796 -228 ct 
2789 -236 2781 -242 2772 -246 ct 2763 -249 2752 -251 2741 -251 ct 2729 -251 2718 -249 2708 -245 ct 
2699 -242 2691 -236 2684 -227 ct 2677 -219 2672 -207 2668 -193 ct 2665 -179 2663 -161 2663 -140 ct 
2663 -119 2665 -101 2669 -86 ct 2673 -72 2678 -61 2685 -52 ct 2691 -44 2699 -38 2708 -35 ct 
2717 -31 2727 -29 2738 -29 ct 2750 -29 2760 -31 2770 -34 ct 2780 -38 2788 -44 2795 -52 ct 
2801 -61 2807 -72 2810 -86 ct 2814 -101 2816 -119 2816 -140 ct p ef
2977 -280 m  2977 -103 l  2977 -89 2978 -78 2980 -68 ct 2982 -59 2985 -52 2990 -46 ct 
2994 -41 3000 -37 3008 -34 ct 3015 -32 3024 -31 3035 -31 ct 3046 -31 3056 -33 3065 -37 ct 
3074 -41 3081 -46 3088 -54 ct 3094 -61 3099 -70 3102 -81 ct 3106 -92 3107 -104 3107 -118 ct 
3107 -280 l  3154 -280 l  3154 -60 l  3154 -54 3154 -48 3154 -41 ct 3154 -35 3154 -29 3155 -23 ct 
3155 -17 3155 -12 3155 -8 ct 3155 -4 3155 -1 3156 0 ct 3112 0 l  3111 -1 3111 -3 3111 -7 ct 
3111 -11 3111 -15 3110 -20 ct 3110 -25 3110 -30 3110 -35 ct 3110 -40 3110 -45 3110 -48 ct 
3109 -48 l  3104 -40 3099 -33 3094 -26 ct 3089 -19 3082 -14 3075 -9 ct 3068 -5 3060 -1 3051 1 ct 
3042 4 3031 5 3019 5 ct 3004 5 2990 3 2979 -1 ct 2968 -4 2959 -10 2951 -18 ct 2944 -26 2939 -36 2935 -49 ct 
2932 -61 2930 -76 2930 -94 ct 2930 -280 l  2977 -280 l  p ef
3238 0 m  3238 -215 l  3238 -221 3238 -227 3238 -233 ct 3238 -239 3237 -245 3237 -250 ct 
3237 -256 3237 -261 3237 -266 ct 3237 -271 3236 -276 3236 -280 ct 3280 -280 l 
3280 -276 3281 -271 3281 -266 ct 3281 -261 3281 -256 3282 -251 ct 3282 -245 3282 -240 3282 -235 ct 
3282 -230 3282 -226 3282 -223 ct 3283 -223 l  3287 -233 3290 -243 3294 -250 ct 
3297 -258 3302 -265 3307 -270 ct 3312 -275 3318 -279 3325 -281 ct 3332 -284 3340 -285 3350 -285 ct 
3354 -285 3357 -285 3361 -284 ct 3364 -284 3367 -283 3369 -282 ct 3369 -240 l 
3366 -241 3362 -241 3358 -242 ct 3354 -242 3349 -242 3344 -242 ct 3333 -242 3324 -240 3317 -235 ct 
3309 -230 3303 -224 3298 -215 ct 3293 -207 3290 -196 3288 -185 ct 3285 -173 3284 -160 3284 -146 ct 
3284 0 l  3238 0 l  p ef
3454 -141 m  3454 -125 3455 -111 3458 -97 ct 3460 -84 3464 -72 3469 -62 ct 3475 -53 3482 -45 3491 -40 ct 
3500 -34 3512 -32 3525 -32 ct 3541 -32 3555 -36 3566 -45 ct 3577 -53 3584 -67 3587 -85 ct 
3634 -85 l  3632 -73 3629 -62 3624 -51 ct 3619 -40 3612 -31 3603 -22 ct 3594 -14 3583 -7 3570 -2 ct 
3558 2 3543 5 3526 5 ct 3504 5 3486 1 3470 -6 ct 3455 -14 3442 -24 3433 -37 ct 
3423 -50 3416 -65 3412 -83 ct 3408 -100 3406 -120 3406 -140 ct 3406 -159 3407 -176 3410 -190 ct 
3413 -204 3418 -217 3423 -228 ct 3429 -239 3435 -248 3443 -255 ct 3451 -262 3459 -268 3468 -272 ct 
3477 -277 3486 -280 3496 -282 ct 3506 -284 3516 -285 3526 -285 ct 3541 -285 3555 -283 3568 -279 ct 
3580 -274 3590 -268 3599 -261 ct 3608 -253 3615 -245 3621 -234 ct 3626 -224 3630 -213 3632 -202 ct 
3585 -198 l  3582 -213 3576 -226 3566 -235 ct 3556 -244 3542 -249 3524 -249 ct 
3511 -249 3500 -246 3491 -242 ct 3482 -238 3475 -231 3469 -222 ct 3464 -213 3460 -202 3458 -189 ct 
3455 -175 3454 -159 3454 -141 ct p ef
3729 -130 m  3729 -116 3731 -102 3734 -90 ct 3737 -77 3742 -67 3748 -58 ct 3754 -49 3762 -42 3772 -37 ct 
3782 -32 3794 -30 3808 -30 ct 3828 -30 3844 -34 3856 -42 ct 3868 -50 3877 -60 3881 -73 ct 
3922 -61 l  3919 -53 3915 -46 3909 -38 ct 3904 -30 3897 -23 3888 -17 ct 3880 -10 3869 -5 3855 -1 ct 
3842 3 3826 5 3808 5 ct 3766 5 3735 -7 3713 -32 ct 3691 -57 3681 -93 3681 -142 ct 
3681 -168 3684 -190 3690 -208 ct 3697 -227 3706 -241 3717 -253 ct 3729 -264 3742 -272 3757 -277 ct 
3772 -282 3789 -285 3806 -285 ct 3829 -285 3849 -281 3865 -274 ct 3880 -266 3893 -256 3903 -242 ct 
3912 -229 3919 -213 3923 -195 ct 3927 -177 3929 -158 3929 -137 ct 3929 -130 l 
3729 -130 l  p
3881 -166 m  3878 -195 3871 -217 3859 -230 ct 3846 -244 3828 -251 3805 -251 ct 
3797 -251 3789 -249 3781 -247 ct 3772 -244 3764 -240 3757 -234 ct 3750 -227 3743 -219 3738 -208 ct 
3733 -197 3731 -183 3730 -166 ct 3881 -166 l  p ef
pom
pum
4053 12337 t
288 0 m  178 -159 l  67 0 l  12 0 l  151 -189 l  23 -364 l  77 -364 l 
179 -221 l  277 -364 l  332 -364 l  207 -191 l  342 0 l  288 0 l  p ef
719 0 m  719 -243 l  719 -252 719 -261 719 -270 ct 719 -279 719 -288 720 -295 ct 
720 -304 720 -312 721 -321 ct 718 -312 716 -303 713 -295 ct 711 -287 709 -279 706 -271 ct 
703 -263 701 -255 698 -248 ct 604 0 l  569 0 l  474 -248 l  473 -251 472 -254 470 -257 ct 
469 -261 468 -264 467 -268 ct 466 -272 464 -276 463 -280 ct 462 -284 460 -288 459 -292 ct 
456 -301 453 -311 451 -321 ct 451 -311 451 -301 451 -292 ct 452 -284 452 -275 452 -267 ct 
452 -258 452 -250 452 -243 ct 452 0 l  408 0 l  408 -364 l  473 -364 l  570 -112 l 
572 -108 573 -104 575 -98 ct 577 -93 578 -87 580 -82 ct 581 -76 583 -71 584 -66 ct 
585 -60 586 -57 587 -54 ct 587 -57 588 -61 590 -66 ct 591 -71 593 -76 594 -82 ct 
596 -88 598 -93 600 -99 ct 601 -104 603 -108 604 -112 ct 700 -364 l  763 -364 l 
763 0 l  719 0 l  p ef
862 0 m  862 -365 l  912 -365 l  912 -40 l  1096 -40 l  1096 0 l  862 0 l 
p ef
pom
0.449 0.625 0.812 c 17325 12604 m  15219 12604 l  15219 11106 l  19430 11106 l 
19430 12604 l  17325 12604 l  pc
pum
15379 11743 t
0.003 0.003 0.003 c 189 5 m  169 5 150 2 132 -3 ct 114 -8 99 -17 85 -28 ct 71 -39 61 -54 53 -71 ct 
45 -88 41 -109 41 -133 ct 41 -365 l  90 -365 l  90 -137 l  90 -118 93 -103 98 -90 ct 
103 -77 109 -66 118 -58 ct 127 -50 137 -44 149 -41 ct 161 -37 175 -35 189 -35 ct 
203 -35 216 -37 229 -41 ct 242 -45 253 -51 262 -59 ct 272 -67 279 -78 285 -91 ct 
290 -105 293 -121 293 -140 ct 293 -365 l  342 -365 l  342 -137 l  342 -113 338 -92 330 -74 ct 
322 -56 311 -41 297 -30 ct 283 -18 267 -9 249 -4 ct 230 2 210 5 189 5 ct p ef
671 -141 m  671 -120 669 -100 665 -82 ct 662 -64 656 -49 648 -36 ct 640 -23 629 -13 616 -6 ct 
603 2 587 5 568 5 ct 547 5 530 2 515 -6 ct 500 -14 488 -26 481 -43 ct 479 -43 l 
479 -43 480 -41 480 -39 ct 480 -36 480 -32 480 -28 ct 480 -24 480 -20 480 -14 ct 
480 -9 480 -4 480 1 ct 480 110 l  434 110 l  434 -223 l  434 -229 434 -236 434 -242 ct 
434 -248 433 -254 433 -259 ct 433 -264 433 -268 433 -272 ct 433 -276 432 -278 432 -280 ct 
477 -280 l  477 -279 478 -277 478 -274 ct 478 -271 478 -268 479 -263 ct 479 -259 479 -254 479 -249 ct 
480 -244 480 -239 480 -235 ct 481 -235 l  485 -244 490 -252 496 -258 ct 501 -264 507 -269 514 -273 ct 
522 -277 529 -280 538 -282 ct 547 -284 557 -285 568 -285 ct 587 -285 603 -281 616 -275 ct 
629 -268 640 -258 648 -245 ct 656 -233 662 -218 665 -200 ct 669 -182 671 -163 671 -141 ct 
p
622 -140 m  622 -157 621 -173 618 -186 ct 616 -200 613 -211 608 -220 ct 603 -230 596 -237 587 -242 ct 
579 -247 568 -249 556 -249 ct 545 -249 536 -248 526 -245 ct 517 -242 509 -236 502 -228 ct 
496 -219 490 -208 486 -193 ct 482 -179 480 -160 480 -137 ct 480 -117 482 -100 485 -86 ct 
488 -72 493 -61 500 -53 ct 506 -44 514 -38 523 -35 ct 532 -31 543 -29 555 -29 ct 
568 -29 579 -32 587 -37 ct 596 -42 603 -49 608 -58 ct 613 -68 616 -79 618 -93 ct 
621 -107 622 -123 622 -140 ct p ef
914 -45 m  906 -27 894 -14 880 -7 ct 866 1 848 5 827 5 ct 792 5 766 -7 749 -31 ct 
733 -55 724 -91 724 -139 ct 724 -237 759 -285 827 -285 ct 848 -285 866 -282 880 -274 ct 
894 -266 906 -254 914 -237 ct 915 -237 l  915 -238 915 -241 915 -245 ct 915 -249 915 -252 915 -257 ct 
915 -261 914 -264 914 -268 ct 914 -272 914 -274 914 -276 ct 914 -384 l  961 -384 l 
961 -58 l  961 -51 961 -45 961 -38 ct 961 -32 961 -27 962 -21 ct 962 -16 962 -12 962 -8 ct 
962 -4 962 -2 963 0 ct 918 0 l  918 -2 917 -4 917 -8 ct 917 -11 917 -14 916 -19 ct 
916 -23 916 -27 916 -32 ct 916 -36 916 -41 916 -45 ct 914 -45 l  p
773 -140 m  773 -121 774 -105 777 -91 ct 779 -77 783 -66 788 -57 ct 794 -48 801 -41 809 -37 ct 
817 -33 827 -31 839 -31 ct 851 -31 862 -33 872 -37 ct 881 -41 889 -47 895 -56 ct 
901 -65 906 -77 910 -91 ct 913 -105 914 -123 914 -144 ct 914 -163 913 -180 910 -194 ct 
906 -208 901 -219 895 -227 ct 889 -236 881 -242 872 -245 ct 862 -249 852 -251 840 -251 ct 
828 -251 818 -249 810 -245 ct 802 -241 795 -235 789 -226 ct 784 -217 780 -206 777 -192 ct 
775 -178 773 -160 773 -140 ct p ef
1113 5 m  1085 5 1064 -2 1050 -17 ct 1036 -32 1029 -53 1029 -79 ct 1029 -97 1032 -112 1039 -124 ct 
1046 -136 1055 -145 1066 -152 ct 1078 -159 1091 -164 1105 -166 ct 1120 -169 1134 -170 1149 -170 ct 
1212 -170 l  1212 -185 l  1212 -197 1211 -207 1209 -215 ct 1206 -223 1203 -230 1198 -235 ct 
1193 -240 1186 -244 1179 -246 ct 1171 -248 1162 -250 1152 -250 ct 1143 -250 1135 -249 1128 -248 ct 
1121 -246 1114 -244 1109 -241 ct 1104 -237 1099 -233 1096 -227 ct 1093 -221 1091 -214 1090 -205 ct 
1041 -210 l  1043 -221 1046 -231 1051 -240 ct 1056 -249 1062 -257 1071 -264 ct 
1080 -271 1091 -276 1105 -279 ct 1118 -283 1134 -285 1153 -285 ct 1188 -285 1215 -277 1233 -261 ct 
1250 -245 1259 -221 1259 -191 ct 1259 -71 l  1259 -57 1261 -46 1265 -39 ct 1268 -32 1275 -29 1286 -29 ct 
1288 -29 1291 -29 1293 -29 ct 1296 -30 1298 -30 1301 -31 ct 1301 -2 l  1295 0 1289 1 1283 1 ct 
1278 2 1271 2 1265 2 ct 1256 2 1248 1 1242 -1 ct 1236 -4 1231 -7 1227 -12 ct 1223 -17 1220 -22 1218 -29 ct 
1216 -36 1214 -44 1214 -54 ct 1212 -54 l  1207 -45 1202 -37 1196 -29 ct 1190 -22 1183 -16 1175 -11 ct 
1167 -6 1158 -2 1148 1 ct 1138 4 1126 5 1113 5 ct p
1124 -30 m  1139 -30 1152 -33 1163 -38 ct 1174 -43 1183 -50 1190 -59 ct 1198 -67 1203 -76 1207 -86 ct 
1210 -96 1212 -106 1212 -115 ct 1212 -137 l  1161 -137 l  1150 -137 1139 -137 1129 -135 ct 
1119 -134 1110 -131 1102 -127 ct 1094 -122 1088 -116 1083 -108 ct 1079 -101 1076 -90 1076 -78 ct 
1076 -62 1080 -51 1089 -42 ct 1097 -34 1109 -30 1124 -30 ct p ef
1453 -2 m  1446 0 1439 1 1432 2 ct 1424 3 1416 4 1406 4 ct 1369 4 1350 -17 1350 -59 ct 
1350 -246 l  1318 -246 l  1318 -280 l  1352 -280 l  1366 -343 l  1397 -343 l 
1397 -280 l  1449 -280 l  1449 -246 l  1397 -246 l  1397 -69 l  1397 -56 1399 -47 1404 -41 ct 
1408 -36 1416 -33 1426 -33 ct 1431 -33 1435 -33 1440 -34 ct 1444 -35 1448 -36 1453 -37 ct 
1453 -2 l  p ef
1535 -130 m  1535 -116 1537 -102 1540 -90 ct 1543 -77 1548 -67 1554 -58 ct 1560 -49 1568 -42 1578 -37 ct 
1588 -32 1600 -30 1614 -30 ct 1634 -30 1650 -34 1662 -42 ct 1674 -50 1683 -60 1687 -73 ct 
1728 -61 l  1725 -53 1721 -46 1715 -38 ct 1710 -30 1703 -23 1694 -17 ct 1686 -10 1675 -5 1661 -1 ct 
1648 3 1632 5 1614 5 ct 1572 5 1541 -7 1519 -32 ct 1497 -57 1487 -93 1487 -142 ct 
1487 -168 1490 -190 1496 -208 ct 1503 -227 1512 -241 1523 -253 ct 1535 -264 1548 -272 1563 -277 ct 
1578 -282 1595 -285 1612 -285 ct 1635 -285 1655 -281 1671 -274 ct 1686 -266 1699 -256 1709 -242 ct 
1718 -229 1725 -213 1729 -195 ct 1733 -177 1735 -158 1735 -137 ct 1735 -130 l 
1535 -130 l  p
1687 -166 m  1684 -195 1677 -217 1665 -230 ct 1652 -244 1634 -251 1611 -251 ct 
1603 -251 1595 -249 1587 -247 ct 1578 -244 1570 -240 1563 -234 ct 1556 -227 1549 -219 1544 -208 ct 
1539 -197 1537 -183 1536 -166 ct 1687 -166 l  p ef
1980 -45 m  1972 -27 1960 -14 1946 -7 ct 1932 1 1914 5 1893 5 ct 1858 5 1832 -7 1815 -31 ct 
1799 -55 1790 -91 1790 -139 ct 1790 -237 1825 -285 1893 -285 ct 1914 -285 1932 -282 1946 -274 ct 
1960 -266 1972 -254 1980 -237 ct 1981 -237 l  1981 -238 1981 -241 1981 -245 ct 
1981 -249 1981 -252 1981 -257 ct 1981 -261 1980 -264 1980 -268 ct 1980 -272 1980 -274 1980 -276 ct 
1980 -384 l  2027 -384 l  2027 -58 l  2027 -51 2027 -45 2027 -38 ct 2027 -32 2027 -27 2028 -21 ct 
2028 -16 2028 -12 2028 -8 ct 2028 -4 2028 -2 2029 0 ct 1984 0 l  1984 -2 1983 -4 1983 -8 ct 
1983 -11 1983 -14 1982 -19 ct 1982 -23 1982 -27 1982 -32 ct 1982 -36 1982 -41 1982 -45 ct 
1980 -45 l  p
1839 -140 m  1839 -121 1840 -105 1843 -91 ct 1845 -77 1849 -66 1854 -57 ct 1860 -48 1867 -41 1875 -37 ct 
1883 -33 1893 -31 1905 -31 ct 1917 -31 1928 -33 1938 -37 ct 1947 -41 1955 -47 1961 -56 ct 
1967 -65 1972 -77 1976 -91 ct 1979 -105 1980 -123 1980 -144 ct 1980 -163 1979 -180 1976 -194 ct 
1972 -208 1967 -219 1961 -227 ct 1955 -236 1947 -242 1938 -245 ct 1928 -249 1918 -251 1906 -251 ct 
1894 -251 1884 -249 1876 -245 ct 1868 -241 1861 -235 1855 -226 ct 1850 -217 1846 -206 1843 -192 ct 
1841 -178 1839 -160 1839 -140 ct p ef
2399 -324 m  2399 0 l  2350 0 l  2350 -324 l  2225 -324 l  2225 -364 l 
2525 -364 l  2525 -324 l  2399 -324 l  p ef
2592 5 m  2564 5 2543 -2 2529 -17 ct 2515 -32 2508 -53 2508 -79 ct 2508 -97 2511 -112 2518 -124 ct 
2525 -136 2534 -145 2545 -152 ct 2557 -159 2570 -164 2584 -166 ct 2599 -169 2613 -170 2628 -170 ct 
2691 -170 l  2691 -185 l  2691 -197 2690 -207 2688 -215 ct 2685 -223 2682 -230 2677 -235 ct 
2672 -240 2665 -244 2658 -246 ct 2650 -248 2641 -250 2631 -250 ct 2622 -250 2614 -249 2607 -248 ct 
2600 -246 2593 -244 2588 -241 ct 2583 -237 2578 -233 2575 -227 ct 2572 -221 2570 -214 2569 -205 ct 
2520 -210 l  2522 -221 2525 -231 2530 -240 ct 2535 -249 2541 -257 2550 -264 ct 
2559 -271 2570 -276 2584 -279 ct 2597 -283 2613 -285 2632 -285 ct 2667 -285 2694 -277 2712 -261 ct 
2729 -245 2738 -221 2738 -191 ct 2738 -71 l  2738 -57 2740 -46 2744 -39 ct 2747 -32 2754 -29 2765 -29 ct 
2767 -29 2770 -29 2772 -29 ct 2775 -30 2777 -30 2780 -31 ct 2780 -2 l  2774 0 2768 1 2762 1 ct 
2757 2 2750 2 2744 2 ct 2735 2 2727 1 2721 -1 ct 2715 -4 2710 -7 2706 -12 ct 2702 -17 2699 -22 2697 -29 ct 
2695 -36 2693 -44 2693 -54 ct 2691 -54 l  2686 -45 2681 -37 2675 -29 ct 2669 -22 2662 -16 2654 -11 ct 
2646 -6 2637 -2 2627 1 ct 2617 4 2605 5 2592 5 ct p
2603 -30 m  2618 -30 2631 -33 2642 -38 ct 2653 -43 2662 -50 2669 -59 ct 2677 -67 2682 -76 2686 -86 ct 
2689 -96 2691 -106 2691 -115 ct 2691 -137 l  2640 -137 l  2629 -137 2618 -137 2608 -135 ct 
2598 -134 2589 -131 2581 -127 ct 2573 -122 2567 -116 2562 -108 ct 2558 -101 2555 -90 2555 -78 ct 
2555 -62 2559 -51 2568 -42 ct 2576 -34 2588 -30 2603 -30 ct p ef
2826 0 m  2826 -215 l  2826 -221 2826 -227 2826 -233 ct 2826 -239 2825 -245 2825 -250 ct 
2825 -256 2825 -261 2825 -266 ct 2825 -271 2824 -276 2824 -280 ct 2868 -280 l 
2868 -276 2869 -271 2869 -266 ct 2869 -261 2869 -256 2870 -251 ct 2870 -245 2870 -240 2870 -235 ct 
2870 -230 2870 -226 2870 -223 ct 2871 -223 l  2875 -233 2878 -243 2882 -250 ct 
2885 -258 2890 -265 2895 -270 ct 2900 -275 2906 -279 2913 -281 ct 2920 -284 2928 -285 2938 -285 ct 
2942 -285 2945 -285 2949 -284 ct 2952 -284 2955 -283 2957 -282 ct 2957 -240 l 
2954 -241 2950 -241 2946 -242 ct 2942 -242 2937 -242 2932 -242 ct 2921 -242 2912 -240 2905 -235 ct 
2897 -230 2891 -224 2886 -215 ct 2881 -207 2878 -196 2876 -185 ct 2873 -173 2872 -160 2872 -146 ct 
2872 0 l  2826 0 l  p ef
3113 110 m  3097 110 3083 108 3070 105 ct 3058 102 3047 97 3038 91 ct 3029 85 3022 78 3017 69 ct 
3011 61 3007 51 3005 41 ct 3052 34 l  3055 47 3062 57 3072 64 ct 3083 71 3097 75 3114 75 ct 
3125 75 3134 73 3143 70 ct 3151 67 3159 63 3165 56 ct 3171 50 3176 41 3179 31 ct 
3182 20 3184 8 3184 -7 ct 3184 -52 l  3183 -52 l  3180 -45 3175 -38 3170 -32 ct 
3165 -25 3159 -20 3152 -15 ct 3144 -10 3136 -6 3126 -3 ct 3117 0 3106 2 3093 2 ct 
3075 2 3060 -1 3047 -7 ct 3035 -13 3024 -22 3016 -34 ct 3008 -46 3003 -60 2999 -78 ct 
2995 -96 2993 -116 2993 -139 ct 2993 -162 2995 -182 2999 -200 ct 3003 -218 3009 -233 3017 -245 ct 
3025 -258 3036 -267 3050 -274 ct 3063 -281 3079 -284 3098 -284 ct 3118 -284 3135 -279 3150 -270 ct 
3165 -261 3176 -249 3184 -232 ct 3184 -232 l  3184 -236 3184 -241 3185 -246 ct 
3185 -252 3185 -257 3185 -261 ct 3186 -266 3186 -270 3186 -274 ct 3187 -277 3187 -279 3187 -280 ct 
3232 -280 l  3231 -278 3231 -275 3231 -272 ct 3231 -268 3231 -264 3231 -258 ct 
3230 -253 3230 -248 3230 -241 ct 3230 -235 3230 -228 3230 -222 ct 3230 -8 l 
3230 31 3220 61 3201 80 ct 3182 100 3153 110 3113 110 ct p
3184 -140 m  3184 -159 3182 -176 3177 -190 ct 3173 -204 3168 -215 3161 -224 ct 
3154 -233 3146 -239 3137 -243 ct 3128 -247 3119 -249 3110 -249 ct 3098 -249 3088 -247 3079 -243 ct 
3071 -239 3063 -233 3058 -224 ct 3052 -215 3048 -203 3045 -190 ct 3043 -176 3041 -159 3041 -140 ct 
3041 -120 3043 -103 3045 -89 ct 3048 -75 3052 -64 3058 -56 ct 3063 -47 3070 -41 3079 -38 ct 
3087 -34 3097 -32 3109 -32 ct 3118 -32 3127 -34 3136 -38 ct 3145 -42 3153 -49 3160 -57 ct 
3167 -66 3173 -77 3177 -91 ct 3182 -104 3184 -121 3184 -140 ct p ef
3346 -130 m  3346 -116 3348 -102 3351 -90 ct 3354 -77 3359 -67 3365 -58 ct 3371 -49 3379 -42 3389 -37 ct 
3399 -32 3411 -30 3425 -30 ct 3445 -30 3461 -34 3473 -42 ct 3485 -50 3494 -60 3498 -73 ct 
3539 -61 l  3536 -53 3532 -46 3526 -38 ct 3521 -30 3514 -23 3505 -17 ct 3497 -10 3486 -5 3472 -1 ct 
3459 3 3443 5 3425 5 ct 3383 5 3352 -7 3330 -32 ct 3308 -57 3298 -93 3298 -142 ct 
3298 -168 3301 -190 3307 -208 ct 3314 -227 3323 -241 3334 -253 ct 3346 -264 3359 -272 3374 -277 ct 
3389 -282 3406 -285 3423 -285 ct 3446 -285 3466 -281 3482 -274 ct 3497 -266 3510 -256 3520 -242 ct 
3529 -229 3536 -213 3540 -195 ct 3544 -177 3546 -158 3546 -137 ct 3546 -130 l 
3346 -130 l  p
3498 -166 m  3495 -195 3488 -217 3476 -230 ct 3463 -244 3445 -251 3422 -251 ct 
3414 -251 3406 -249 3398 -247 ct 3389 -244 3381 -240 3374 -234 ct 3367 -227 3360 -219 3355 -208 ct 
3350 -197 3348 -183 3347 -166 ct 3498 -166 l  p ef
3723 -2 m  3716 0 3709 1 3702 2 ct 3694 3 3686 4 3676 4 ct 3639 4 3620 -17 3620 -59 ct 
3620 -246 l  3588 -246 l  3588 -280 l  3622 -280 l  3636 -343 l  3667 -343 l 
3667 -280 l  3719 -280 l  3719 -246 l  3667 -246 l  3667 -69 l  3667 -56 3669 -47 3674 -41 ct 
3678 -36 3686 -33 3696 -33 ct 3701 -33 3705 -33 3710 -34 ct 3714 -35 3718 -36 3723 -37 ct 
3723 -2 l  p ef
pom
pum
16764 12338 t
288 0 m  178 -159 l  67 0 l  12 0 l  151 -189 l  23 -364 l  77 -364 l 
179 -221 l  277 -364 l  332 -364 l  207 -191 l  342 0 l  288 0 l  p ef
719 0 m  719 -243 l  719 -252 719 -261 719 -270 ct 719 -279 719 -288 720 -295 ct 
720 -304 720 -312 721 -321 ct 718 -312 716 -303 713 -295 ct 711 -287 709 -279 706 -271 ct 
703 -263 701 -255 698 -248 ct 604 0 l  569 0 l  474 -248 l  473 -251 472 -254 470 -257 ct 
469 -261 468 -264 467 -268 ct 466 -272 464 -276 463 -280 ct 462 -284 460 -288 459 -292 ct 
456 -301 453 -311 451 -321 ct 451 -311 451 -301 451 -292 ct 452 -284 452 -275 452 -267 ct 
452 -258 452 -250 452 -243 ct 452 0 l  408 0 l  408 -364 l  473 -364 l  570 -112 l 
572 -108 573 -104 575 -98 ct 577 -93 578 -87 580 -82 ct 581 -76 583 -71 584 -66 ct 
585 -60 586 -57 587 -54 ct 587 -57 588 -61 590 -66 ct 591 -71 593 -76 594 -82 ct 
596 -88 598 -93 600 -99 ct 601 -104 603 -108 604 -112 ct 700 -364 l  763 -364 l 
763 0 l  719 0 l  p ef
862 0 m  862 -365 l  912 -365 l  912 -40 l  1096 -40 l  1096 0 l  862 0 l 
p ef
pom
166 lw 0.449 0.625 0.812 c 6792 9924 m  14423 9925 l  ps
15267 9925 m  14383 9639 l  14382 10210 l  15267 9925 l  p ef
6792 9924 m  11133 9924 11144 11601 7567 11830 ct ps
6720 11855 m  7613 12112 l  7593 11541 l  6720 11855 l  p ef
15219 11856 m  7564 11855 l  ps
6720 11855 m  7603 12141 l  7604 11570 l  6720 11855 l  p ef
pum
8134 12854 t
0.003 0.003 0.003 c 326 -103 m  326 -84 322 -69 315 -55 ct 307 -42 298 -32 285 -24 ct 
273 -15 259 -9 243 -6 ct 227 -2 209 0 192 0 ct 43 0 l  43 -365 l  176 -365 l 
196 -365 214 -363 230 -360 ct 246 -356 259 -351 270 -344 ct 281 -336 290 -327 296 -316 ct 
301 -305 304 -292 304 -276 ct 304 -266 303 -256 300 -247 ct 297 -238 293 -230 287 -223 ct 
281 -216 274 -209 265 -204 ct 257 -199 247 -195 235 -192 ct 250 -190 263 -187 274 -182 ct 
285 -177 295 -171 302 -163 ct 310 -155 316 -146 320 -136 ct 324 -126 326 -115 326 -103 ct 
p
255 -270 m  255 -290 248 -304 234 -312 ct 221 -321 202 -325 176 -325 ct 93 -325 l 
93 -210 l  176 -210 l  190 -210 203 -211 213 -214 ct 223 -217 231 -221 237 -226 ct 
243 -231 248 -238 251 -245 ct 253 -252 255 -261 255 -270 ct p
276 -107 m  276 -118 274 -128 269 -136 ct 265 -144 259 -151 251 -156 ct 243 -161 234 -165 222 -167 ct 
211 -170 199 -171 185 -171 ct 93 -171 l  93 -40 l  189 -40 l  202 -40 213 -41 224 -43 ct 
234 -45 243 -48 251 -54 ct 259 -59 265 -66 269 -74 ct 273 -83 276 -94 276 -107 ct 
p ef
400 -340 m  400 -384 l  447 -384 l  447 -340 l  400 -340 l  p
400 0 m  400 -280 l  447 -280 l  447 0 l  400 0 l  p ef
698 -45 m  690 -27 678 -14 664 -7 ct 650 1 632 5 611 5 ct 576 5 550 -7 533 -31 ct 
517 -55 508 -91 508 -139 ct 508 -237 543 -285 611 -285 ct 632 -285 650 -282 664 -274 ct 
678 -266 690 -254 698 -237 ct 699 -237 l  699 -238 699 -241 699 -245 ct 699 -249 699 -252 699 -257 ct 
699 -261 698 -264 698 -268 ct 698 -272 698 -274 698 -276 ct 698 -384 l  745 -384 l 
745 -58 l  745 -51 745 -45 745 -38 ct 745 -32 745 -27 746 -21 ct 746 -16 746 -12 746 -8 ct 
746 -4 746 -2 747 0 ct 702 0 l  702 -2 701 -4 701 -8 ct 701 -11 701 -14 700 -19 ct 
700 -23 700 -27 700 -32 ct 700 -36 700 -41 700 -45 ct 698 -45 l  p
557 -140 m  557 -121 558 -105 561 -91 ct 563 -77 567 -66 572 -57 ct 578 -48 585 -41 593 -37 ct 
601 -33 611 -31 623 -31 ct 635 -31 646 -33 656 -37 ct 665 -41 673 -47 679 -56 ct 
685 -65 690 -77 694 -91 ct 697 -105 698 -123 698 -144 ct 698 -163 697 -180 694 -194 ct 
690 -208 685 -219 679 -227 ct 673 -236 665 -242 656 -245 ct 646 -249 636 -251 624 -251 ct 
612 -251 602 -249 594 -245 ct 586 -241 579 -235 573 -226 ct 568 -217 564 -206 561 -192 ct 
559 -178 557 -160 557 -140 ct p ef
825 -340 m  825 -384 l  872 -384 l  872 -340 l  825 -340 l  p
825 0 m  825 -280 l  872 -280 l  872 0 l  825 0 l  p ef
950 0 m  950 -215 l  950 -221 950 -227 950 -233 ct 950 -239 949 -245 949 -250 ct 
949 -256 949 -261 949 -266 ct 949 -271 948 -276 948 -280 ct 992 -280 l  992 -276 993 -271 993 -266 ct 
993 -261 993 -256 994 -251 ct 994 -245 994 -240 994 -235 ct 994 -230 994 -226 994 -223 ct 
995 -223 l  999 -233 1002 -243 1006 -250 ct 1009 -258 1014 -265 1019 -270 ct 
1024 -275 1030 -279 1037 -281 ct 1044 -284 1052 -285 1062 -285 ct 1066 -285 1069 -285 1073 -284 ct 
1076 -284 1079 -283 1081 -282 ct 1081 -240 l  1078 -241 1074 -241 1070 -242 ct 
1066 -242 1061 -242 1056 -242 ct 1045 -242 1036 -240 1029 -235 ct 1021 -230 1015 -224 1010 -215 ct 
1005 -207 1002 -196 1000 -185 ct 997 -173 996 -160 996 -146 ct 996 0 l  950 0 l 
p ef
1166 -130 m  1166 -116 1168 -102 1171 -90 ct 1174 -77 1179 -67 1185 -58 ct 1191 -49 1199 -42 1209 -37 ct 
1219 -32 1231 -30 1245 -30 ct 1265 -30 1281 -34 1293 -42 ct 1305 -50 1314 -60 1318 -73 ct 
1359 -61 l  1356 -53 1352 -46 1346 -38 ct 1341 -30 1334 -23 1325 -17 ct 1317 -10 1306 -5 1292 -1 ct 
1279 3 1263 5 1245 5 ct 1203 5 1172 -7 1150 -32 ct 1128 -57 1118 -93 1118 -142 ct 
1118 -168 1121 -190 1127 -208 ct 1134 -227 1143 -241 1154 -253 ct 1166 -264 1179 -272 1194 -277 ct 
1209 -282 1226 -285 1243 -285 ct 1266 -285 1286 -281 1302 -274 ct 1317 -266 1330 -256 1340 -242 ct 
1349 -229 1356 -213 1360 -195 ct 1364 -177 1366 -158 1366 -137 ct 1366 -130 l 
1166 -130 l  p
1318 -166 m  1315 -195 1308 -217 1296 -230 ct 1283 -244 1265 -251 1242 -251 ct 
1234 -251 1226 -249 1218 -247 ct 1209 -244 1201 -240 1194 -234 ct 1187 -227 1180 -219 1175 -208 ct 
1170 -197 1168 -183 1167 -166 ct 1318 -166 l  p ef
1470 -141 m  1470 -125 1471 -111 1474 -97 ct 1476 -84 1480 -72 1485 -62 ct 1491 -53 1498 -45 1507 -40 ct 
1516 -34 1528 -32 1541 -32 ct 1557 -32 1571 -36 1582 -45 ct 1593 -53 1600 -67 1603 -85 ct 
1650 -85 l  1648 -73 1645 -62 1640 -51 ct 1635 -40 1628 -31 1619 -22 ct 1610 -14 1599 -7 1586 -2 ct 
1574 2 1559 5 1542 5 ct 1520 5 1502 1 1486 -6 ct 1471 -14 1458 -24 1449 -37 ct 
1439 -50 1432 -65 1428 -83 ct 1424 -100 1422 -120 1422 -140 ct 1422 -159 1423 -176 1426 -190 ct 
1429 -204 1434 -217 1439 -228 ct 1445 -239 1451 -248 1459 -255 ct 1467 -262 1475 -268 1484 -272 ct 
1493 -277 1502 -280 1512 -282 ct 1522 -284 1532 -285 1542 -285 ct 1557 -285 1571 -283 1584 -279 ct 
1596 -274 1606 -268 1615 -261 ct 1624 -253 1631 -245 1637 -234 ct 1642 -224 1646 -213 1648 -202 ct 
1601 -198 l  1598 -213 1592 -226 1582 -235 ct 1572 -244 1558 -249 1540 -249 ct 
1527 -249 1516 -246 1507 -242 ct 1498 -238 1491 -231 1485 -222 ct 1480 -213 1476 -202 1474 -189 ct 
1471 -175 1470 -159 1470 -141 ct p ef
1819 -2 m  1812 0 1805 1 1798 2 ct 1790 3 1782 4 1772 4 ct 1735 4 1716 -17 1716 -59 ct 
1716 -246 l  1684 -246 l  1684 -280 l  1718 -280 l  1732 -343 l  1763 -343 l 
1763 -280 l  1815 -280 l  1815 -246 l  1763 -246 l  1763 -69 l  1763 -56 1765 -47 1770 -41 ct 
1774 -36 1782 -33 1792 -33 ct 1797 -33 1801 -33 1806 -34 ct 1810 -35 1814 -36 1819 -37 ct 
1819 -2 l  p ef
1864 -340 m  1864 -384 l  1911 -384 l  1911 -340 l  1864 -340 l  p
1864 0 m  1864 -280 l  1911 -280 l  1911 0 l  1864 0 l  p ef
2224 -140 m  2224 -91 2213 -55 2191 -31 ct 2170 -7 2138 5 2097 5 ct 2078 5 2060 2 2045 -4 ct 
2030 -10 2017 -19 2006 -31 ct 1995 -43 1987 -58 1982 -76 ct 1976 -94 1973 -116 1973 -140 ct 
1973 -237 2015 -285 2099 -285 ct 2121 -285 2139 -282 2155 -276 ct 2171 -270 2184 -261 2194 -249 ct 
2204 -237 2211 -222 2216 -204 ct 2221 -185 2224 -164 2224 -140 ct p
2175 -140 m  2175 -162 2173 -180 2170 -194 ct 2166 -208 2161 -219 2155 -228 ct 
2148 -236 2140 -242 2131 -246 ct 2122 -249 2111 -251 2100 -251 ct 2088 -251 2077 -249 2067 -245 ct 
2058 -242 2050 -236 2043 -227 ct 2036 -219 2031 -207 2027 -193 ct 2024 -179 2022 -161 2022 -140 ct 
2022 -119 2024 -101 2028 -86 ct 2032 -72 2037 -61 2044 -52 ct 2050 -44 2058 -38 2067 -35 ct 
2076 -31 2086 -29 2097 -29 ct 2109 -29 2119 -31 2129 -34 ct 2139 -38 2147 -44 2154 -52 ct 
2160 -61 2166 -72 2169 -86 ct 2173 -101 2175 -119 2175 -140 ct p ef
2469 0 m  2469 -177 l  2469 -191 2468 -202 2466 -212 ct 2464 -221 2460 -228 2456 -234 ct 
2451 -239 2445 -243 2438 -246 ct 2431 -248 2422 -249 2411 -249 ct 2400 -249 2390 -247 2381 -243 ct 
2372 -239 2364 -234 2358 -226 ct 2352 -219 2347 -210 2344 -199 ct 2340 -189 2338 -176 2338 -162 ct 
2338 0 l  2292 0 l  2292 -220 l  2292 -226 2292 -232 2292 -239 ct 2292 -245 2291 -251 2291 -257 ct 
2291 -263 2291 -268 2291 -272 ct 2291 -276 2290 -279 2290 -280 ct 2334 -280 l 
2334 -279 2335 -277 2335 -273 ct 2335 -269 2335 -265 2335 -260 ct 2336 -255 2336 -250 2336 -245 ct 
2336 -240 2336 -235 2336 -232 ct 2337 -232 l  2342 -240 2346 -247 2352 -254 ct 
2357 -261 2363 -266 2370 -271 ct 2378 -275 2386 -279 2395 -281 ct 2404 -284 2415 -285 2427 -285 ct 
2442 -285 2455 -283 2467 -279 ct 2478 -276 2487 -270 2494 -262 ct 2502 -254 2507 -244 2510 -231 ct 
2514 -219 2515 -204 2515 -186 ct 2515 0 l  2469 0 l  p ef
2667 5 m  2639 5 2618 -2 2604 -17 ct 2590 -32 2583 -53 2583 -79 ct 2583 -97 2586 -112 2593 -124 ct 
2600 -136 2609 -145 2620 -152 ct 2632 -159 2645 -164 2659 -166 ct 2674 -169 2688 -170 2703 -170 ct 
2766 -170 l  2766 -185 l  2766 -197 2765 -207 2763 -215 ct 2760 -223 2757 -230 2752 -235 ct 
2747 -240 2740 -244 2733 -246 ct 2725 -248 2716 -250 2706 -250 ct 2697 -250 2689 -249 2682 -248 ct 
2675 -246 2668 -244 2663 -241 ct 2658 -237 2653 -233 2650 -227 ct 2647 -221 2645 -214 2644 -205 ct 
2595 -210 l  2597 -221 2600 -231 2605 -240 ct 2610 -249 2616 -257 2625 -264 ct 
2634 -271 2645 -276 2659 -279 ct 2672 -283 2688 -285 2707 -285 ct 2742 -285 2769 -277 2787 -261 ct 
2804 -245 2813 -221 2813 -191 ct 2813 -71 l  2813 -57 2815 -46 2819 -39 ct 2822 -32 2829 -29 2840 -29 ct 
2842 -29 2845 -29 2847 -29 ct 2850 -30 2852 -30 2855 -31 ct 2855 -2 l  2849 0 2843 1 2837 1 ct 
2832 2 2825 2 2819 2 ct 2810 2 2802 1 2796 -1 ct 2790 -4 2785 -7 2781 -12 ct 2777 -17 2774 -22 2772 -29 ct 
2770 -36 2768 -44 2768 -54 ct 2766 -54 l  2761 -45 2756 -37 2750 -29 ct 2744 -22 2737 -16 2729 -11 ct 
2721 -6 2712 -2 2702 1 ct 2692 4 2680 5 2667 5 ct p
2678 -30 m  2693 -30 2706 -33 2717 -38 ct 2728 -43 2737 -50 2744 -59 ct 2752 -67 2757 -76 2761 -86 ct 
2764 -96 2766 -106 2766 -115 ct 2766 -137 l  2715 -137 l  2704 -137 2693 -137 2683 -135 ct 
2673 -134 2664 -131 2656 -127 ct 2648 -122 2642 -116 2637 -108 ct 2633 -101 2630 -90 2630 -78 ct 
2630 -62 2634 -51 2643 -42 ct 2651 -34 2663 -30 2678 -30 ct p ef
2900 0 m  2900 -384 l  2946 -384 l  2946 0 l  2900 0 l  p ef
3183 0 m  3183 -364 l  3460 -364 l  3460 -324 l  3233 -324 l  3233 -207 l 
3445 -207 l  3445 -167 l  3233 -167 l  3233 -40 l  3471 -40 l  3471 0 l 
3183 0 l  p ef
3664 0 m  3609 0 l  3507 -280 l  3557 -280 l  3618 -98 l  3619 -94 3621 -89 3622 -84 ct 
3624 -79 3626 -73 3627 -67 ct 3629 -61 3631 -56 3632 -50 ct 3634 -45 3635 -40 3636 -36 ct 
3637 -40 3638 -45 3640 -50 ct 3642 -56 3643 -61 3645 -67 ct 3647 -72 3649 -78 3650 -83 ct 
3652 -89 3654 -93 3655 -97 ct 3719 -280 l  3768 -280 l  3664 0 l  p ef
3888 5 m  3860 5 3839 -2 3825 -17 ct 3811 -32 3804 -53 3804 -79 ct 3804 -97 3807 -112 3814 -124 ct 
3821 -136 3830 -145 3841 -152 ct 3853 -159 3866 -164 3880 -166 ct 3895 -169 3909 -170 3924 -170 ct 
3987 -170 l  3987 -185 l  3987 -197 3986 -207 3984 -215 ct 3981 -223 3978 -230 3973 -235 ct 
3968 -240 3961 -244 3954 -246 ct 3946 -248 3937 -250 3927 -250 ct 3918 -250 3910 -249 3903 -248 ct 
3896 -246 3889 -244 3884 -241 ct 3879 -237 3874 -233 3871 -227 ct 3868 -221 3866 -214 3865 -205 ct 
3816 -210 l  3818 -221 3821 -231 3826 -240 ct 3831 -249 3837 -257 3846 -264 ct 
3855 -271 3866 -276 3880 -279 ct 3893 -283 3909 -285 3928 -285 ct 3963 -285 3990 -277 4008 -261 ct 
4025 -245 4034 -221 4034 -191 ct 4034 -71 l  4034 -57 4036 -46 4040 -39 ct 4043 -32 4050 -29 4061 -29 ct 
4063 -29 4066 -29 4068 -29 ct 4071 -30 4073 -30 4076 -31 ct 4076 -2 l  4070 0 4064 1 4058 1 ct 
4053 2 4046 2 4040 2 ct 4031 2 4023 1 4017 -1 ct 4011 -4 4006 -7 4002 -12 ct 3998 -17 3995 -22 3993 -29 ct 
3991 -36 3989 -44 3989 -54 ct 3987 -54 l  3982 -45 3977 -37 3971 -29 ct 3965 -22 3958 -16 3950 -11 ct 
3942 -6 3933 -2 3923 1 ct 3913 4 3901 5 3888 5 ct p
3899 -30 m  3914 -30 3927 -33 3938 -38 ct 3949 -43 3958 -50 3965 -59 ct 3973 -67 3978 -76 3982 -86 ct 
3985 -96 3987 -106 3987 -115 ct 3987 -137 l  3936 -137 l  3925 -137 3914 -137 3904 -135 ct 
3894 -134 3885 -131 3877 -127 ct 3869 -122 3863 -116 3858 -108 ct 3854 -101 3851 -90 3851 -78 ct 
3851 -62 3855 -51 3864 -42 ct 3872 -34 3884 -30 3899 -30 ct p ef
4121 0 m  4121 -384 l  4167 -384 l  4167 0 l  4121 0 l  p ef
4288 -280 m  4288 -103 l  4288 -89 4289 -78 4291 -68 ct 4293 -59 4296 -52 4301 -46 ct 
4305 -41 4311 -37 4319 -34 ct 4326 -32 4335 -31 4346 -31 ct 4357 -31 4367 -33 4376 -37 ct 
4385 -41 4392 -46 4399 -54 ct 4405 -61 4410 -70 4413 -81 ct 4417 -92 4418 -104 4418 -118 ct 
4418 -280 l  4465 -280 l  4465 -60 l  4465 -54 4465 -48 4465 -41 ct 4465 -35 4465 -29 4466 -23 ct 
4466 -17 4466 -12 4466 -8 ct 4466 -4 4466 -1 4467 0 ct 4423 0 l  4422 -1 4422 -3 4422 -7 ct 
4422 -11 4422 -15 4421 -20 ct 4421 -25 4421 -30 4421 -35 ct 4421 -40 4421 -45 4421 -48 ct 
4420 -48 l  4415 -40 4410 -33 4405 -26 ct 4400 -19 4393 -14 4386 -9 ct 4379 -5 4371 -1 4362 1 ct 
4353 4 4342 5 4330 5 ct 4315 5 4301 3 4290 -1 ct 4279 -4 4270 -10 4262 -18 ct 4255 -26 4250 -36 4246 -49 ct 
4243 -61 4241 -76 4241 -94 ct 4241 -280 l  4288 -280 l  p ef
4618 5 m  4590 5 4569 -2 4555 -17 ct 4541 -32 4534 -53 4534 -79 ct 4534 -97 4537 -112 4544 -124 ct 
4551 -136 4560 -145 4571 -152 ct 4583 -159 4596 -164 4610 -166 ct 4625 -169 4639 -170 4654 -170 ct 
4717 -170 l  4717 -185 l  4717 -197 4716 -207 4714 -215 ct 4711 -223 4708 -230 4703 -235 ct 
4698 -240 4691 -244 4684 -246 ct 4676 -248 4667 -250 4657 -250 ct 4648 -250 4640 -249 4633 -248 ct 
4626 -246 4619 -244 4614 -241 ct 4609 -237 4604 -233 4601 -227 ct 4598 -221 4596 -214 4595 -205 ct 
4546 -210 l  4548 -221 4551 -231 4556 -240 ct 4561 -249 4567 -257 4576 -264 ct 
4585 -271 4596 -276 4610 -279 ct 4623 -283 4639 -285 4658 -285 ct 4693 -285 4720 -277 4738 -261 ct 
4755 -245 4764 -221 4764 -191 ct 4764 -71 l  4764 -57 4766 -46 4770 -39 ct 4773 -32 4780 -29 4791 -29 ct 
4793 -29 4796 -29 4798 -29 ct 4801 -30 4803 -30 4806 -31 ct 4806 -2 l  4800 0 4794 1 4788 1 ct 
4783 2 4776 2 4770 2 ct 4761 2 4753 1 4747 -1 ct 4741 -4 4736 -7 4732 -12 ct 4728 -17 4725 -22 4723 -29 ct 
4721 -36 4719 -44 4719 -54 ct 4717 -54 l  4712 -45 4707 -37 4701 -29 ct 4695 -22 4688 -16 4680 -11 ct 
4672 -6 4663 -2 4653 1 ct 4643 4 4631 5 4618 5 ct p
4629 -30 m  4644 -30 4657 -33 4668 -38 ct 4679 -43 4688 -50 4695 -59 ct 4703 -67 4708 -76 4712 -86 ct 
4715 -96 4717 -106 4717 -115 ct 4717 -137 l  4666 -137 l  4655 -137 4644 -137 4634 -135 ct 
4624 -134 4615 -131 4607 -127 ct 4599 -122 4593 -116 4588 -108 ct 4584 -101 4581 -90 4581 -78 ct 
4581 -62 4585 -51 4594 -42 ct 4602 -34 4614 -30 4629 -30 ct p ef
4958 -2 m  4951 0 4944 1 4937 2 ct 4929 3 4921 4 4911 4 ct 4874 4 4855 -17 4855 -59 ct 
4855 -246 l  4823 -246 l  4823 -280 l  4857 -280 l  4871 -343 l  4902 -343 l 
4902 -280 l  4954 -280 l  4954 -246 l  4902 -246 l  4902 -69 l  4902 -56 4904 -47 4909 -41 ct 
4913 -36 4921 -33 4931 -33 ct 4936 -33 4940 -33 4945 -34 ct 4949 -35 4953 -36 4958 -37 ct 
4958 -2 l  p ef
5242 -140 m  5242 -91 5231 -55 5209 -31 ct 5188 -7 5156 5 5115 5 ct 5096 5 5078 2 5063 -4 ct 
5048 -10 5035 -19 5024 -31 ct 5013 -43 5005 -58 5000 -76 ct 4994 -94 4991 -116 4991 -140 ct 
4991 -237 5033 -285 5117 -285 ct 5139 -285 5157 -282 5173 -276 ct 5189 -270 5202 -261 5212 -249 ct 
5222 -237 5229 -222 5234 -204 ct 5239 -185 5242 -164 5242 -140 ct p
5193 -140 m  5193 -162 5191 -180 5188 -194 ct 5184 -208 5179 -219 5173 -228 ct 
5166 -236 5158 -242 5149 -246 ct 5140 -249 5129 -251 5118 -251 ct 5106 -251 5095 -249 5085 -245 ct 
5076 -242 5068 -236 5061 -227 ct 5054 -219 5049 -207 5045 -193 ct 5042 -179 5040 -161 5040 -140 ct 
5040 -119 5042 -101 5046 -86 ct 5050 -72 5055 -61 5062 -52 ct 5068 -44 5076 -38 5085 -35 ct 
5094 -31 5104 -29 5115 -29 ct 5127 -29 5137 -31 5147 -34 ct 5157 -38 5165 -44 5172 -52 ct 
5178 -61 5184 -72 5187 -86 ct 5191 -101 5193 -119 5193 -140 ct p ef
5310 0 m  5310 -215 l  5310 -221 5310 -227 5310 -233 ct 5310 -239 5309 -245 5309 -250 ct 
5309 -256 5309 -261 5309 -266 ct 5309 -271 5308 -276 5308 -280 ct 5352 -280 l 
5352 -276 5353 -271 5353 -266 ct 5353 -261 5353 -256 5354 -251 ct 5354 -245 5354 -240 5354 -235 ct 
5354 -230 5354 -226 5354 -223 ct 5355 -223 l  5359 -233 5362 -243 5366 -250 ct 
5369 -258 5374 -265 5379 -270 ct 5384 -275 5390 -279 5397 -281 ct 5404 -284 5412 -285 5422 -285 ct 
5426 -285 5429 -285 5433 -284 ct 5436 -284 5439 -283 5441 -282 ct 5441 -240 l 
5438 -241 5434 -241 5430 -242 ct 5426 -242 5421 -242 5416 -242 ct 5405 -242 5396 -240 5389 -235 ct 
5381 -230 5375 -224 5370 -215 ct 5365 -207 5362 -196 5360 -185 ct 5357 -173 5356 -160 5356 -146 ct 
5356 0 l  5310 0 l  p ef
pom
pum
11483 11706 t
189 5 m  169 5 150 2 132 -3 ct 114 -8 99 -17 85 -28 ct 71 -39 61 -54 53 -71 ct 
45 -88 41 -109 41 -133 ct 41 -365 l  90 -365 l  90 -137 l  90 -118 93 -103 98 -90 ct 
103 -77 109 -66 118 -58 ct 127 -50 137 -44 149 -41 ct 161 -37 175 -35 189 -35 ct 
203 -35 216 -37 229 -41 ct 242 -45 253 -51 262 -59 ct 272 -67 279 -78 285 -91 ct 
290 -105 293 -121 293 -140 ct 293 -365 l  342 -365 l  342 -137 l  342 -113 338 -92 330 -74 ct 
322 -56 311 -41 297 -30 ct 283 -18 267 -9 249 -4 ct 230 2 210 5 189 5 ct p ef
pom
pum
11469 10528 t
387 -184 m  387 -158 384 -135 377 -114 ct 370 -92 361 -74 348 -58 ct 336 -41 320 -28 302 -18 ct 
284 -8 263 -2 240 1 ct 244 13 248 22 252 30 ct 257 37 262 44 268 49 ct 274 54 280 57 288 60 ct 
295 62 303 63 312 63 ct 316 63 322 63 327 62 ct 333 61 337 61 341 60 ct 341 94 l 
335 96 328 97 320 98 ct 312 99 304 100 295 100 ct 280 100 268 98 256 93 ct 245 89 236 83 227 74 ct 
219 66 212 56 206 44 ct 200 32 194 18 190 3 ct 162 3 138 -2 118 -12 ct 97 -22 80 -35 66 -52 ct 
53 -69 42 -88 35 -110 ct 29 -133 25 -157 25 -183 ct 25 -212 29 -238 37 -261 ct 
45 -284 57 -303 72 -320 ct 87 -336 106 -348 129 -357 ct 151 -366 177 -370 206 -370 ct 
235 -370 261 -366 284 -357 ct 306 -348 325 -336 340 -319 ct 355 -303 367 -284 375 -261 ct 
383 -238 387 -212 387 -184 ct p
336 -184 m  336 -206 334 -226 328 -244 ct 322 -262 314 -277 303 -290 ct 292 -303 279 -312 262 -319 ct 
246 -326 227 -330 206 -330 ct 185 -330 165 -326 149 -319 ct 133 -312 119 -303 108 -290 ct 
97 -277 89 -262 83 -244 ct 78 -226 75 -206 75 -184 ct 75 -162 78 -142 84 -124 ct 
89 -106 98 -90 109 -77 ct 120 -64 133 -53 149 -46 ct 166 -39 185 -35 206 -35 ct 
229 -35 248 -39 265 -46 ct 281 -54 295 -64 305 -77 ct 316 -90 324 -106 329 -124 ct 
334 -143 336 -162 336 -184 ct p ef
pom
gr
gs
0 0 m 20999 0 l 20999 29699 l 0 29699 l 0 0 l eoclip newpath
gr
gr
0 29700 t 
pom
count op_count sub {pop} repeat countdictstack dict_count sub {end} repeat b4_inc_state restore
%%PageTrailer
%%Trailer
%%EOF
